{
  "__comment": "",
  "textures": {
    "0": "blocks/awool_colored_silver",
    "1": "blocks/awool_colored_cyan",
    "2": "blocks/awool_colored_red",
    "3": "blocks/awool_colored_yellow",
    "4": "blocks/awool_colored_green"
  },
  "elements": [
    {
      "name": "Cube",
      "from": [
        7.5,
        -2.6999999955296516,
        7.5
      ],
      "to": [
        8.5,
        4.300000004470348,
        8.5
      ],
      "faces": {
        "north": {
          "texture": "#0",
          "uv": [
            0.0,
            0.0,
            1.0,
            16.0
          ]
        },
        "east": {
          "texture": "#0",
          "uv": [
            0.0,
            0.0,
            1.0,
            16.0
          ]
        },
        "south": {
          "texture": "#0",
          "uv": [
            0.0,
            0.0,
            1.0,
            16.0
          ]
        },
        "west": {
          "texture": "#0",
          "uv": [
            0.0,
            0.0,
            1.0,
            16.0
          ]
        },
        "up": {
          "texture": "#0",
          "uv": [
            0.0,
            0.0,
            1.0,
            1.0
          ]
        },
        "down": {
          "texture": "#0",
          "uv": [
            0.0,
            0.0,
            1.0,
            1.0
          ]
        }
      }
    },
    {
      "name": "Cube",
      "from": [
        7.7,
        -3.6,
        7.7
      ],
      "to": [
        8.3,
        -2.1,
        8.3
      ],
      "faces": {
        "north": {
          "texture": "#0",
          "uv": [
            0.0,
            0.0,
            0.7999999970197678,
            0.29999998956918716
          ]
        },
        "east": {
          "texture": "#0",
          "uv": [
            0.0,
            0.0,
            0.7999999970197678,
            0.29999998956918716
          ]
        },
        "south": {
          "texture": "#0",
          "uv": [
            0.0,
            0.0,
            0.7999999970197678,
            0.29999998956918716
          ]
        },
        "west": {
          "texture": "#0",
          "uv": [
            0.0,
            0.0,
            0.7999999970197678,
            0.29999998956918716
          ]
        },
        "up": {
          "texture": "#0",
          "uv": [
            0.0,
            0.0,
            0.7999999970197678,
            0.7999999970197678
          ]
        },
        "down": {
          "texture": "#0",
          "uv": [
            0.0,
            0.0,
            0.7999999970197678,
            0.7999999970197678
          ]
        }
      }
    },
    {
      "name": "Cube",
      "from": [
        7.6,
        -3.2,
        7.6
      ],
      "to": [
        8.4,
        -1.7000000000000002,
        8.4
      ],
      "faces": {
        "north": {
          "texture": "#0",
          "uv": [
            0.0,
            0.0,
            0.7999999970197678,
            0.29999998956918716
          ]
        },
        "east": {
          "texture": "#0",
          "uv": [
            0.0,
            0.0,
            0.7999999970197678,
            0.29999998956918716
          ]
        },
        "south": {
          "texture": "#0",
          "uv": [
            0.0,
            0.0,
            0.7999999970197678,
            0.29999998956918716
          ]
        },
        "west": {
          "texture": "#0",
          "uv": [
            0.0,
            0.0,
            0.7999999970197678,
            0.29999998956918716
          ]
        },
        "up": {
          "texture": "#0",
          "uv": [
            0.0,
            0.0,
            0.7999999970197678,
            0.7999999970197678
          ]
        },
        "down": {
          "texture": "#0",
          "uv": [
            0.0,
            0.0,
            0.7999999970197678,
            0.7999999970197678
          ]
        }
      }
    },
    {
      "name": "Cube",
      "from": [
        7.4,
        -2.1,
        7.4
      ],
      "to": [
        8.6,
        -1.9000000000000001,
        8.6
      ],
      "faces": {
        "north": {
          "texture": "#0",
          "uv": [
            0.0,
            0.0,
            1.0,
            16.0
          ]
        },
        "east": {
          "texture": "#0",
          "uv": [
            0.0,
            0.0,
            1.0,
            16.0
          ]
        },
        "south": {
          "texture": "#0",
          "uv": [
            0.0,
            0.0,
            1.0,
            16.0
          ]
        },
        "west": {
          "texture": "#0",
          "uv": [
            0.0,
            0.0,
            1.0,
            16.0
          ]
        },
        "up": {
          "texture": "#0",
          "uv": [
            0.0,
            0.0,
            1.0,
            1.0
          ]
        },
        "down": {
          "texture": "#0",
          "uv": [
            0.0,
            0.0,
            1.0,
            1.0
          ]
        }
      }
    },
    {
      "name": "Cube",
      "from": [
        7.3,
        -2.2,
        7.3
      ],
      "to": [
        8.7,
        -2.0,
        8.7
      ],
      "faces": {
        "north": {
          "texture": "#0",
          "uv": [
            0.0,
            0.0,
            1.0,
            16.0
          ]
        },
        "east": {
          "texture": "#0",
          "uv": [
            0.0,
            0.0,
            1.0,
            16.0
          ]
        },
        "south": {
          "texture": "#0",
          "uv": [
            0.0,
            0.0,
            1.0,
            16.0
          ]
        },
        "west": {
          "texture": "#0",
          "uv": [
            0.0,
            0.0,
            1.0,
            16.0
          ]
        },
        "up": {
          "texture": "#0",
          "uv": [
            0.0,
            0.0,
            1.0,
            1.0
          ]
        },
        "down": {
          "texture": "#0",
          "uv": [
            0.0,
            0.0,
            1.0,
            1.0
          ]
        }
      }
    },
    {
      "name": "Cube",
      "from": [
        7.5,
        4.3,
        7.2
      ],
      "to": [
        8.5,
        4.3999999999999995,
        8.8
      ],
      "faces": {
        "north": {
          "texture": "#0",
          "uv": [
            0.0,
            0.0,
            1.0,
            0.1
          ]
        },
        "east": {
          "texture": "#0",
          "uv": [
            0.0,
            0.0,
            1.6,
            0.1
          ]
        },
        "south": {
          "texture": "#0",
          "uv": [
            0.0,
            0.0,
            1.0,
            0.1
          ]
        },
        "west": {
          "texture": "#0",
          "uv": [
            0.0,
            0.0,
            1.6,
            0.1
          ]
        },
        "up": {
          "texture": "#0",
          "uv": [
            0.0,
            0.0,
            1.0,
            1.6
          ]
        },
        "down": {
          "texture": "#0",
          "uv": [
            0.0,
            0.0,
            1.0,
            1.6
          ]
        }
      }
    },
    {
      "name": "Cube",
      "from": [
        7.5,
        4.4,
        7.1
      ],
      "to": [
        8.5,
        4.5,
        8.9
      ],
      "faces": {
        "north": {
          "texture": "#0",
          "uv": [
            0.0,
            0.0,
            1.0,
            0.1
          ]
        },
        "east": {
          "texture": "#0",
          "uv": [
            0.0,
            0.0,
            1.8,
            0.1
          ]
        },
        "south": {
          "texture": "#0",
          "uv": [
            0.0,
            0.0,
            1.0,
            0.1
          ]
        },
        "west": {
          "texture": "#0",
          "uv": [
            0.0,
            0.0,
            1.8,
            0.1
          ]
        },
        "up": {
          "texture": "#0",
          "uv": [
            0.0,
            0.0,
            1.0,
            1.8
          ]
        },
        "down": {
          "texture": "#0",
          "uv": [
            0.0,
            0.0,
            1.0,
            1.8
          ]
        }
      }
    },
    {
      "name": "Cube",
      "from": [
        7.5,
        4.5,
        7.0
      ],
      "to": [
        8.5,
        4.6,
        9.0
      ],
      "faces": {
        "north": {
          "texture": "#0",
          "uv": [
            0.0,
            0.0,
            1.0,
            0.10000000000000009
          ]
        },
        "east": {
          "texture": "#0",
          "uv": [
            0.0,
            0.0,
            2.0,
            0.10000000000000009
          ]
        },
        "south": {
          "texture": "#0",
          "uv": [
            0.0,
            0.0,
            1.0,
            0.10000000000000009
          ]
        },
        "west": {
          "texture": "#0",
          "uv": [
            0.0,
            0.0,
            2.0,
            0.10000000000000009
          ]
        },
        "up": {
          "texture": "#0",
          "uv": [
            0.0,
            0.0,
            1.0,
            2.0
          ]
        },
        "down": {
          "texture": "#0",
          "uv": [
            0.0,
            0.0,
            1.0,
            2.0
          ]
        }
      }
    },
    {
      "name": "Cube",
      "from": [
        7.5,
        4.6,
        6.9
      ],
      "to": [
        8.5,
        4.699999999999999,
        9.100000000000001
      ],
      "faces": {
        "north": {
          "texture": "#0",
          "uv": [
            0.0,
            0.0,
            1.0,
            0.1
          ]
        },
        "east": {
          "texture": "#0",
          "uv": [
            0.0,
            0.0,
            2.2,
            0.1
          ]
        },
        "south": {
          "texture": "#0",
          "uv": [
            0.0,
            0.0,
            1.0,
            0.1
          ]
        },
        "west": {
          "texture": "#0",
          "uv": [
            0.0,
            0.0,
            2.2,
            0.1
          ]
        },
        "up": {
          "texture": "#0",
          "uv": [
            0.0,
            0.0,
            1.0,
            2.2
          ]
        },
        "down": {
          "texture": "#0",
          "uv": [
            0.0,
            0.0,
            1.0,
            2.2
          ]
        }
      }
    },
    {
      "name": "Cube",
      "from": [
        7.5,
        4.7,
        6.8
      ],
      "to": [
        8.5,
        4.8,
        9.2
      ],
      "faces": {
        "north": {
          "texture": "#0",
          "uv": [
            0.0,
            0.0,
            1.0,
            0.1
          ]
        },
        "east": {
          "texture": "#0",
          "uv": [
            0.0,
            0.0,
            2.4,
            0.1
          ]
        },
        "south": {
          "texture": "#0",
          "uv": [
            0.0,
            0.0,
            1.0,
            0.1
          ]
        },
        "west": {
          "texture": "#0",
          "uv": [
            0.0,
            0.0,
            2.4,
            0.1
          ]
        },
        "up": {
          "texture": "#0",
          "uv": [
            0.0,
            0.0,
            1.0,
            2.4
          ]
        },
        "down": {
          "texture": "#0",
          "uv": [
            0.0,
            0.0,
            1.0,
            2.4
          ]
        }
      }
    },
    {
      "name": "Cube",
      "from": [
        6.8,
        4.7,
        7.5
      ],
      "to": [
        9.2,
        4.800000000000001,
        8.5
      ],
      "faces": {
        "north": {
          "texture": "#0",
          "uv": [
            0.0,
            0.0,
            2.4,
            0.10000000000000009
          ]
        },
        "east": {
          "texture": "#0",
          "uv": [
            0.0,
            0.0,
            1.0,
            0.10000000000000009
          ]
        },
        "south": {
          "texture": "#0",
          "uv": [
            0.0,
            0.0,
            2.4,
            0.10000000000000009
          ]
        },
        "west": {
          "texture": "#0",
          "uv": [
            0.0,
            0.0,
            1.0,
            0.10000000000000009
          ]
        },
        "up": {
          "texture": "#0",
          "uv": [
            0.0,
            0.0,
            2.4,
            1.0
          ]
        },
        "down": {
          "texture": "#0",
          "uv": [
            0.0,
            0.0,
            2.4,
            1.0
          ]
        }
      }
    },
    {
      "name": "Cube",
      "from": [
        6.9,
        4.6,
        7.5
      ],
      "to": [
        9.100000000000001,
        4.699999999999999,
        8.5
      ],
      "faces": {
        "north": {
          "texture": "#0",
          "uv": [
            0.0,
            0.0,
            2.2,
            0.10000000000000009
          ]
        },
        "east": {
          "texture": "#0",
          "uv": [
            0.0,
            0.0,
            1.0,
            0.10000000000000009
          ]
        },
        "south": {
          "texture": "#0",
          "uv": [
            0.0,
            0.0,
            2.2,
            0.10000000000000009
          ]
        },
        "west": {
          "texture": "#0",
          "uv": [
            0.0,
            0.0,
            1.0,
            0.10000000000000009
          ]
        },
        "up": {
          "texture": "#0",
          "uv": [
            0.0,
            0.0,
            2.2,
            1.0
          ]
        },
        "down": {
          "texture": "#0",
          "uv": [
            0.0,
            0.0,
            2.2,
            1.0
          ]
        }
      }
    },
    {
      "name": "Cube",
      "from": [
        7.0,
        4.5,
        7.5
      ],
      "to": [
        9.0,
        4.6,
        8.5
      ],
      "faces": {
        "north": {
          "texture": "#0",
          "uv": [
            0.0,
            0.0,
            2.0,
            0.10000000000000009
          ]
        },
        "east": {
          "texture": "#0",
          "uv": [
            0.0,
            0.0,
            1.0,
            0.10000000000000009
          ]
        },
        "south": {
          "texture": "#0",
          "uv": [
            0.0,
            0.0,
            2.0,
            0.10000000000000009
          ]
        },
        "west": {
          "texture": "#0",
          "uv": [
            0.0,
            0.0,
            1.0,
            0.10000000000000009
          ]
        },
        "up": {
          "texture": "#0",
          "uv": [
            0.0,
            0.0,
            2.0,
            1.0
          ]
        },
        "down": {
          "texture": "#0",
          "uv": [
            0.0,
            0.0,
            2.0,
            1.0
          ]
        }
      }
    },
    {
      "name": "Cube",
      "from": [
        7.1,
        4.4,
        7.5
      ],
      "to": [
        8.9,
        4.5,
        8.5
      ],
      "faces": {
        "north": {
          "texture": "#0",
          "uv": [
            0.0,
            0.0,
            1.8,
            0.10000000000000009
          ]
        },
        "east": {
          "texture": "#0",
          "uv": [
            0.0,
            0.0,
            1.0,
            0.10000000000000009
          ]
        },
        "south": {
          "texture": "#0",
          "uv": [
            0.0,
            0.0,
            1.8,
            0.10000000000000009
          ]
        },
        "west": {
          "texture": "#0",
          "uv": [
            0.0,
            0.0,
            1.0,
            0.10000000000000009
          ]
        },
        "up": {
          "texture": "#0",
          "uv": [
            0.0,
            0.0,
            1.8,
            1.0
          ]
        },
        "down": {
          "texture": "#0",
          "uv": [
            0.0,
            0.0,
            1.8,
            1.0
          ]
        }
      }
    },
    {
      "name": "Cube",
      "from": [
        7.2,
        4.3,
        7.5
      ],
      "to": [
        8.8,
        4.4,
        8.5
      ],
      "faces": {
        "north": {
          "texture": "#0",
          "uv": [
            0.0,
            0.0,
            1.6,
            0.10000000000000009
          ]
        },
        "east": {
          "texture": "#0",
          "uv": [
            0.0,
            0.0,
            1.0,
            0.10000000000000009
          ]
        },
        "south": {
          "texture": "#0",
          "uv": [
            0.0,
            0.0,
            1.6,
            0.10000000000000009
          ]
        },
        "west": {
          "texture": "#0",
          "uv": [
            0.0,
            0.0,
            1.0,
            0.10000000000000009
          ]
        },
        "up": {
          "texture": "#0",
          "uv": [
            0.0,
            0.0,
            1.6,
            1.0
          ]
        },
        "down": {
          "texture": "#0",
          "uv": [
            0.0,
            0.0,
            1.6,
            1.0
          ]
        }
      }
    },
    {
      "name": "Cube",
      "from": [
        6.5,
        4.8,
        7.5
      ],
      "to": [
        9.5,
        4.9,
        8.5
      ],
      "faces": {
        "north": {
          "texture": "#0",
          "uv": [
            0.0,
            0.0,
            3.0,
            0.10000000000000009
          ]
        },
        "east": {
          "texture": "#0",
          "uv": [
            0.0,
            0.0,
            1.0,
            0.10000000000000009
          ]
        },
        "south": {
          "texture": "#0",
          "uv": [
            0.0,
            0.0,
            3.0,
            0.10000000000000009
          ]
        },
        "west": {
          "texture": "#0",
          "uv": [
            0.0,
            0.0,
            1.0,
            0.10000000000000009
          ]
        },
        "up": {
          "texture": "#0",
          "uv": [
            0.0,
            0.0,
            3.0,
            1.0
          ]
        },
        "down": {
          "texture": "#0",
          "uv": [
            0.0,
            0.0,
            3.0,
            1.0
          ]
        }
      }
    },
    {
      "name": "Cube",
      "from": [
        7.5,
        4.8,
        6.5
      ],
      "to": [
        8.5,
        4.9,
        9.5
      ],
      "faces": {
        "north": {
          "texture": "#0",
          "uv": [
            0.0,
            0.0,
            1.0,
            0.10000000000000009
          ]
        },
        "east": {
          "texture": "#0",
          "uv": [
            0.0,
            0.0,
            3.0,
            0.10000000000000009
          ]
        },
        "south": {
          "texture": "#0",
          "uv": [
            0.0,
            0.0,
            1.0,
            0.10000000000000009
          ]
        },
        "west": {
          "texture": "#0",
          "uv": [
            0.0,
            0.0,
            3.0,
            0.10000000000000009
          ]
        },
        "up": {
          "texture": "#0",
          "uv": [
            0.0,
            0.0,
            1.0,
            3.0
          ]
        },
        "down": {
          "texture": "#0",
          "uv": [
            0.0,
            0.0,
            1.0,
            3.0
          ]
        }
      }
    },
    {
      "name": "Cube",
      "from": [
        7.5,
        4.9,
        6.0
      ],
      "to": [
        8.5,
        5.0,
        10.0
      ],
      "faces": {
        "north": {
          "texture": "#0",
          "uv": [
            0.0,
            0.0,
            1.0,
            0.10000000000000009
          ]
        },
        "east": {
          "texture": "#0",
          "uv": [
            0.0,
            0.0,
            4.0,
            0.10000000000000009
          ]
        },
        "south": {
          "texture": "#0",
          "uv": [
            0.0,
            0.0,
            1.0,
            0.10000000000000009
          ]
        },
        "west": {
          "texture": "#0",
          "uv": [
            0.0,
            0.0,
            4.0,
            0.10000000000000009
          ]
        },
        "up": {
          "texture": "#0",
          "uv": [
            0.0,
            0.0,
            1.0,
            4.0
          ]
        },
        "down": {
          "texture": "#0",
          "uv": [
            0.0,
            0.0,
            1.0,
            4.0
          ]
        }
      }
    },
    {
      "name": "Cube",
      "from": [
        6.0,
        4.9,
        7.5
      ],
      "to": [
        10.0,
        5.0,
        8.5
      ],
      "faces": {
        "north": {
          "texture": "#0",
          "uv": [
            0.0,
            0.0,
            4.0,
            0.10000000000000009
          ]
        },
        "east": {
          "texture": "#0",
          "uv": [
            0.0,
            0.0,
            1.0,
            0.10000000000000009
          ]
        },
        "south": {
          "texture": "#0",
          "uv": [
            0.0,
            0.0,
            4.0,
            0.10000000000000009
          ]
        },
        "west": {
          "texture": "#0",
          "uv": [
            0.0,
            0.0,
            1.0,
            0.10000000000000009
          ]
        },
        "up": {
          "texture": "#0",
          "uv": [
            0.0,
            0.0,
            4.0,
            1.0
          ]
        },
        "down": {
          "texture": "#0",
          "uv": [
            0.0,
            0.0,
            4.0,
            1.0
          ]
        }
      }
    },
    {
      "name": "Cube",
      "from": [
        5.4,
        4.8,
        7.6
      ],
      "to": [
        6.0,
        5.0,
        8.4
      ],
      "faces": {
        "north": {
          "texture": "#0",
          "uv": [
            0.0,
            0.0,
            0.6,
            0.2
          ]
        },
        "east": {
          "texture": "#0",
          "uv": [
            0.0,
            0.0,
            0.8,
            0.2
          ]
        },
        "south": {
          "texture": "#0",
          "uv": [
            0.0,
            0.0,
            0.6,
            0.2
          ]
        },
        "west": {
          "texture": "#0",
          "uv": [
            0.0,
            0.0,
            0.8,
            0.2
          ]
        },
        "up": {
          "texture": "#0",
          "uv": [
            0.0,
            0.0,
            0.6,
            0.8
          ]
        },
        "down": {
          "texture": "#0",
          "uv": [
            0.0,
            0.0,
            0.6,
            0.8
          ]
        }
      }
    },
    {
      "name": "Cube",
      "from": [
        5.1,
        4.6,
        7.6
      ],
      "to": [
        5.699999999999999,
        4.8,
        8.4
      ],
      "faces": {
        "north": {
          "texture": "#0",
          "uv": [
            0.0,
            0.0,
            0.6,
            0.2
          ]
        },
        "east": {
          "texture": "#0",
          "uv": [
            0.0,
            0.0,
            0.8,
            0.2
          ]
        },
        "south": {
          "texture": "#0",
          "uv": [
            0.0,
            0.0,
            0.6,
            0.2
          ]
        },
        "west": {
          "texture": "#0",
          "uv": [
            0.0,
            0.0,
            0.8,
            0.2
          ]
        },
        "up": {
          "texture": "#0",
          "uv": [
            0.0,
            0.0,
            0.6,
            0.8
          ]
        },
        "down": {
          "texture": "#0",
          "uv": [
            0.0,
            0.0,
            0.6,
            0.8
          ]
        }
      }
    },
    {
      "name": "Cube",
      "from": [
        10.0,
        4.8,
        7.6
      ],
      "to": [
        10.6,
        5.0,
        8.4
      ],
      "faces": {
        "north": {
          "texture": "#0",
          "uv": [
            0.0,
            0.0,
            0.6,
            0.2
          ]
        },
        "east": {
          "texture": "#0",
          "uv": [
            0.0,
            0.0,
            0.8,
            0.2
          ]
        },
        "south": {
          "texture": "#0",
          "uv": [
            0.0,
            0.0,
            0.6,
            0.2
          ]
        },
        "west": {
          "texture": "#0",
          "uv": [
            0.0,
            0.0,
            0.8,
            0.2
          ]
        },
        "up": {
          "texture": "#0",
          "uv": [
            0.0,
            0.0,
            0.6,
            0.8
          ]
        },
        "down": {
          "texture": "#0",
          "uv": [
            0.0,
            0.0,
            0.6,
            0.8
          ]
        }
      }
    },
    {
      "name": "Cube",
      "from": [
        10.3,
        4.6,
        7.6
      ],
      "to": [
        10.9,
        4.8,
        8.4
      ],
      "faces": {
        "north": {
          "texture": "#0",
          "uv": [
            0.0,
            0.0,
            0.6,
            0.2
          ]
        },
        "east": {
          "texture": "#0",
          "uv": [
            0.0,
            0.0,
            0.8,
            0.2
          ]
        },
        "south": {
          "texture": "#0",
          "uv": [
            0.0,
            0.0,
            0.6,
            0.2
          ]
        },
        "west": {
          "texture": "#0",
          "uv": [
            0.0,
            0.0,
            0.8,
            0.2
          ]
        },
        "up": {
          "texture": "#0",
          "uv": [
            0.0,
            0.0,
            0.6,
            0.8
          ]
        },
        "down": {
          "texture": "#0",
          "uv": [
            0.0,
            0.0,
            0.6,
            0.8
          ]
        }
      }
    },
    {
      "name": "Cube",
      "from": [
        10.6,
        4.4,
        7.6
      ],
      "to": [
        11.2,
        4.6000000000000005,
        8.4
      ],
      "faces": {
        "north": {
          "texture": "#0",
          "uv": [
            0.0,
            0.0,
            0.6,
            0.2
          ]
        },
        "east": {
          "texture": "#0",
          "uv": [
            0.0,
            0.0,
            0.8,
            0.2
          ]
        },
        "south": {
          "texture": "#0",
          "uv": [
            0.0,
            0.0,
            0.6,
            0.2
          ]
        },
        "west": {
          "texture": "#0",
          "uv": [
            0.0,
            0.0,
            0.8,
            0.2
          ]
        },
        "up": {
          "texture": "#0",
          "uv": [
            0.0,
            0.0,
            0.6,
            0.8
          ]
        },
        "down": {
          "texture": "#0",
          "uv": [
            0.0,
            0.0,
            0.6,
            0.8
          ]
        }
      }
    },
    {
      "name": "Cube",
      "from": [
        4.8,
        4.4,
        7.6
      ],
      "to": [
        5.3999999999999995,
        4.6000000000000005,
        8.4
      ],
      "faces": {
        "north": {
          "texture": "#0",
          "uv": [
            0.0,
            0.0,
            0.6,
            0.2
          ]
        },
        "east": {
          "texture": "#0",
          "uv": [
            0.0,
            0.0,
            0.8,
            0.2
          ]
        },
        "south": {
          "texture": "#0",
          "uv": [
            0.0,
            0.0,
            0.6,
            0.2
          ]
        },
        "west": {
          "texture": "#0",
          "uv": [
            0.0,
            0.0,
            0.8,
            0.2
          ]
        },
        "up": {
          "texture": "#0",
          "uv": [
            0.0,
            0.0,
            0.6,
            0.8
          ]
        },
        "down": {
          "texture": "#0",
          "uv": [
            0.0,
            0.0,
            0.6,
            0.8
          ]
        }
      }
    },
    {
      "name": "Cube",
      "from": [
        7.6,
        4.8,
        10.0
      ],
      "to": [
        8.4,
        5.0,
        10.6
      ],
      "faces": {
        "north": {
          "texture": "#0",
          "uv": [
            0.0,
            0.0,
            0.8,
            0.2
          ]
        },
        "east": {
          "texture": "#0",
          "uv": [
            0.0,
            0.0,
            0.6,
            0.2
          ]
        },
        "south": {
          "texture": "#0",
          "uv": [
            0.0,
            0.0,
            0.8,
            0.2
          ]
        },
        "west": {
          "texture": "#0",
          "uv": [
            0.0,
            0.0,
            0.6,
            0.2
          ]
        },
        "up": {
          "texture": "#0",
          "uv": [
            0.0,
            0.0,
            0.8,
            0.6
          ]
        },
        "down": {
          "texture": "#0",
          "uv": [
            0.0,
            0.0,
            0.8,
            0.6
          ]
        }
      }
    },
    {
      "name": "Cube",
      "from": [
        7.6,
        4.6,
        10.3
      ],
      "to": [
        8.4,
        4.8,
        10.9
      ],
      "faces": {
        "north": {
          "texture": "#0",
          "uv": [
            0.0,
            0.0,
            0.8,
            0.2
          ]
        },
        "east": {
          "texture": "#0",
          "uv": [
            0.0,
            0.0,
            0.6,
            0.2
          ]
        },
        "south": {
          "texture": "#0",
          "uv": [
            0.0,
            0.0,
            0.8,
            0.2
          ]
        },
        "west": {
          "texture": "#0",
          "uv": [
            0.0,
            0.0,
            0.6,
            0.2
          ]
        },
        "up": {
          "texture": "#0",
          "uv": [
            0.0,
            0.0,
            0.8,
            0.6
          ]
        },
        "down": {
          "texture": "#0",
          "uv": [
            0.0,
            0.0,
            0.8,
            0.6
          ]
        }
      }
    },
    {
      "name": "Cube",
      "from": [
        7.6,
        4.4,
        10.6
      ],
      "to": [
        8.4,
        4.6000000000000005,
        11.2
      ],
      "faces": {
        "north": {
          "texture": "#0",
          "uv": [
            0.0,
            0.0,
            0.8,
            0.2
          ]
        },
        "east": {
          "texture": "#0",
          "uv": [
            0.0,
            0.0,
            0.6,
            0.2
          ]
        },
        "south": {
          "texture": "#0",
          "uv": [
            0.0,
            0.0,
            0.8,
            0.2
          ]
        },
        "west": {
          "texture": "#0",
          "uv": [
            0.0,
            0.0,
            0.6,
            0.2
          ]
        },
        "up": {
          "texture": "#0",
          "uv": [
            0.0,
            0.0,
            0.8,
            0.6
          ]
        },
        "down": {
          "texture": "#0",
          "uv": [
            0.0,
            0.0,
            0.8,
            0.6
          ]
        }
      }
    },
    {
      "name": "Cube",
      "from": [
        7.6,
        4.8,
        5.4
      ],
      "to": [
        8.4,
        5.0,
        6.0
      ],
      "faces": {
        "north": {
          "texture": "#0",
          "uv": [
            0.0,
            0.0,
            0.8,
            0.2
          ]
        },
        "east": {
          "texture": "#0",
          "uv": [
            0.0,
            0.0,
            0.6,
            0.2
          ]
        },
        "south": {
          "texture": "#0",
          "uv": [
            0.0,
            0.0,
            0.8,
            0.2
          ]
        },
        "west": {
          "texture": "#0",
          "uv": [
            0.0,
            0.0,
            0.6,
            0.2
          ]
        },
        "up": {
          "texture": "#0",
          "uv": [
            0.0,
            0.0,
            0.8,
            0.6
          ]
        },
        "down": {
          "texture": "#0",
          "uv": [
            0.0,
            0.0,
            0.8,
            0.6
          ]
        }
      }
    },
    {
      "name": "Cube",
      "from": [
        7.6,
        4.6,
        5.1
      ],
      "to": [
        8.4,
        4.8,
        5.699999999999999
      ],
      "faces": {
        "north": {
          "texture": "#0",
          "uv": [
            0.0,
            0.0,
            0.8,
            0.2
          ]
        },
        "east": {
          "texture": "#0",
          "uv": [
            0.0,
            0.0,
            0.6,
            0.2
          ]
        },
        "south": {
          "texture": "#0",
          "uv": [
            0.0,
            0.0,
            0.8,
            0.2
          ]
        },
        "west": {
          "texture": "#0",
          "uv": [
            0.0,
            0.0,
            0.6,
            0.2
          ]
        },
        "up": {
          "texture": "#0",
          "uv": [
            0.0,
            0.0,
            0.8,
            0.6
          ]
        },
        "down": {
          "texture": "#0",
          "uv": [
            0.0,
            0.0,
            0.8,
            0.6
          ]
        }
      }
    },
    {
      "name": "Cube",
      "from": [
        7.6,
        4.4,
        4.8
      ],
      "to": [
        8.4,
        4.6000000000000005,
        5.3999999999999995
      ],
      "faces": {
        "north": {
          "texture": "#0",
          "uv": [
            0.0,
            0.0,
            0.8,
            0.2
          ]
        },
        "east": {
          "texture": "#0",
          "uv": [
            0.0,
            0.0,
            0.6,
            0.2
          ]
        },
        "south": {
          "texture": "#0",
          "uv": [
            0.0,
            0.0,
            0.8,
            0.2
          ]
        },
        "west": {
          "texture": "#0",
          "uv": [
            0.0,
            0.0,
            0.6,
            0.2
          ]
        },
        "up": {
          "texture": "#0",
          "uv": [
            0.0,
            0.0,
            0.8,
            0.6
          ]
        },
        "down": {
          "texture": "#0",
          "uv": [
            0.0,
            0.0,
            0.8,
            0.6
          ]
        }
      }
    },
    {
      "name": "Cube",
      "from": [
        7.0,
        5.5,
        7.0
      ],
      "to": [
        9.0,
        7.5,
        9.0
      ],
      "faces": {
        "north": {
          "texture": "#0",
          "uv": [
            10.0,
            11.0,
            11.0,
            12.0
          ]
        },
        "east": {
          "texture": "#0",
          "uv": [
            10.0,
            11.0,
            11.0,
            12.0
          ]
        },
        "south": {
          "texture": "#0",
          "uv": [
            10.0,
            11.0,
            11.0,
            12.0
          ]
        },
        "west": {
          "texture": "#0",
          "uv": [
            6.0,
            2.0,
            7.0,
            3.0
          ]
        },
        "up": {
          "texture": "#0",
          "uv": [
            10.0,
            11.0,
            11.0,
            12.0
          ]
        },
        "down": {
          "texture": "#0",
          "uv": [
            10.0,
            11.0,
            11.0,
            12.0
          ]
        }
      }
    },
    {
      "name": "Cube",
      "from": [
        7.1,
        5.4,
        7.1
      ],
      "to": [
        8.9,
        7.4,
        8.9
      ],
      "faces": {
        "north": {
          "texture": "#0",
          "uv": [
            10.0,
            11.0,
            11.0,
            12.0
          ]
        },
        "east": {
          "texture": "#0",
          "uv": [
            10.0,
            11.0,
            11.0,
            12.0
          ]
        },
        "south": {
          "texture": "#0",
          "uv": [
            10.0,
            11.0,
            11.0,
            12.0
          ]
        },
        "west": {
          "texture": "#0",
          "uv": [
            6.0,
            2.0,
            7.0,
            3.0
          ]
        },
        "up": {
          "texture": "#0",
          "uv": [
            10.0,
            11.0,
            11.0,
            12.0
          ]
        },
        "down": {
          "texture": "#0",
          "uv": [
            10.0,
            11.0,
            11.0,
            12.0
          ]
        }
      }
    },
    {
      "name": "Cube",
      "from": [
        7.2,
        5.3,
        7.2
      ],
      "to": [
        8.8,
        7.3,
        8.8
      ],
      "faces": {
        "north": {
          "texture": "#0",
          "uv": [
            10.0,
            11.0,
            11.0,
            12.0
          ]
        },
        "east": {
          "texture": "#0",
          "uv": [
            10.0,
            11.0,
            11.0,
            12.0
          ]
        },
        "south": {
          "texture": "#0",
          "uv": [
            10.0,
            11.0,
            11.0,
            12.0
          ]
        },
        "west": {
          "texture": "#0",
          "uv": [
            6.0,
            2.0,
            7.0,
            3.0
          ]
        },
        "up": {
          "texture": "#0",
          "uv": [
            10.0,
            11.0,
            11.0,
            12.0
          ]
        },
        "down": {
          "texture": "#0",
          "uv": [
            10.0,
            11.0,
            11.0,
            12.0
          ]
        }
      }
    },
    {
      "name": "Cube",
      "from": [
        7.3,
        5.2,
        7.3
      ],
      "to": [
        8.7,
        7.2,
        8.7
      ],
      "faces": {
        "north": {
          "texture": "#0",
          "uv": [
            10.0,
            11.0,
            11.0,
            12.0
          ]
        },
        "east": {
          "texture": "#0",
          "uv": [
            10.0,
            11.0,
            11.0,
            12.0
          ]
        },
        "south": {
          "texture": "#0",
          "uv": [
            10.0,
            11.0,
            11.0,
            12.0
          ]
        },
        "west": {
          "texture": "#0",
          "uv": [
            6.0,
            2.0,
            7.0,
            3.0
          ]
        },
        "up": {
          "texture": "#0",
          "uv": [
            10.0,
            11.0,
            11.0,
            12.0
          ]
        },
        "down": {
          "texture": "#0",
          "uv": [
            10.0,
            11.0,
            11.0,
            12.0
          ]
        }
      }
    },
    {
      "name": "Cube",
      "from": [
        7.7,
        -2.6999999955296516,
        7.7
      ],
      "to": [
        8.2,
        26.30000000447035,
        8.2
      ],
      "faces": {
        "north": {
          "texture": "#0",
          "uv": [
            0.0,
            0.0,
            1.0,
            16.0
          ]
        },
        "east": {
          "texture": "#0",
          "uv": [
            0.0,
            0.0,
            1.0,
            16.0
          ]
        },
        "south": {
          "texture": "#0",
          "uv": [
            0.0,
            0.0,
            1.0,
            16.0
          ]
        },
        "west": {
          "texture": "#0",
          "uv": [
            0.0,
            0.0,
            1.0,
            16.0
          ]
        },
        "up": {
          "texture": "#0",
          "uv": [
            0.0,
            0.0,
            1.0,
            1.0
          ]
        },
        "down": {
          "texture": "#0",
          "uv": [
            0.0,
            0.0,
            1.0,
            1.0
          ]
        }
      }
    },
    {
      "name": "Cube",
      "from": [
        7.3,
        5.2,
        7.3
      ],
      "to": [
        8.7,
        7.800000000000001,
        8.7
      ],
      "faces": {
        "north": {
          "texture": "#0",
          "uv": [
            10.0,
            11.0,
            11.0,
            12.0
          ]
        },
        "east": {
          "texture": "#0",
          "uv": [
            10.0,
            11.0,
            11.0,
            12.0
          ]
        },
        "south": {
          "texture": "#0",
          "uv": [
            10.0,
            11.0,
            11.0,
            12.0
          ]
        },
        "west": {
          "texture": "#0",
          "uv": [
            6.0,
            2.0,
            7.0,
            3.0
          ]
        },
        "up": {
          "texture": "#0",
          "uv": [
            10.0,
            11.0,
            11.0,
            12.0
          ]
        },
        "down": {
          "texture": "#0",
          "uv": [
            10.0,
            11.0,
            11.0,
            12.0
          ]
        }
      }
    },
    {
      "name": "Cube",
      "from": [
        7.0,
        7.9,
        7.5
      ],
      "to": [
        9.0,
        8.0,
        8.5
      ],
      "faces": {
        "north": {
          "texture": "#0",
          "uv": [
            0.0,
            0.0,
            2.0,
            0.10000000000000009
          ]
        },
        "east": {
          "texture": "#0",
          "uv": [
            0.0,
            0.0,
            1.0,
            0.10000000000000009
          ]
        },
        "south": {
          "texture": "#0",
          "uv": [
            0.0,
            0.0,
            2.0,
            0.10000000000000009
          ]
        },
        "west": {
          "texture": "#0",
          "uv": [
            0.0,
            0.0,
            1.0,
            0.10000000000000009
          ]
        },
        "up": {
          "texture": "#0",
          "uv": [
            0.0,
            0.0,
            2.0,
            1.0
          ]
        },
        "down": {
          "texture": "#0",
          "uv": [
            0.0,
            0.0,
            2.0,
            1.0
          ]
        }
      }
    },
    {
      "name": "Cube",
      "from": [
        7.5,
        7.9,
        7.0
      ],
      "to": [
        8.5,
        8.0,
        9.0
      ],
      "faces": {
        "north": {
          "texture": "#0",
          "uv": [
            0.0,
            0.0,
            1.0,
            0.10000000000000009
          ]
        },
        "east": {
          "texture": "#0",
          "uv": [
            0.0,
            0.0,
            2.0,
            0.10000000000000009
          ]
        },
        "south": {
          "texture": "#0",
          "uv": [
            0.0,
            0.0,
            1.0,
            0.10000000000000009
          ]
        },
        "west": {
          "texture": "#0",
          "uv": [
            0.0,
            0.0,
            2.0,
            0.10000000000000009
          ]
        },
        "up": {
          "texture": "#0",
          "uv": [
            0.0,
            0.0,
            1.0,
            2.0
          ]
        },
        "down": {
          "texture": "#0",
          "uv": [
            0.0,
            0.0,
            1.0,
            2.0
          ]
        }
      }
    },
    {
      "name": "Cube",
      "from": [
        7.5,
        5.0,
        6.5
      ],
      "to": [
        8.5,
        5.1,
        9.5
      ],
      "faces": {
        "north": {
          "texture": "#0",
          "uv": [
            0.0,
            0.0,
            1.0,
            0.10000000000000009
          ]
        },
        "east": {
          "texture": "#0",
          "uv": [
            0.0,
            0.0,
            2.0,
            0.10000000000000009
          ]
        },
        "south": {
          "texture": "#0",
          "uv": [
            0.0,
            0.0,
            1.0,
            0.10000000000000009
          ]
        },
        "west": {
          "texture": "#0",
          "uv": [
            0.0,
            0.0,
            2.0,
            0.10000000000000009
          ]
        },
        "up": {
          "texture": "#0",
          "uv": [
            0.0,
            0.0,
            1.0,
            2.0
          ]
        },
        "down": {
          "texture": "#0",
          "uv": [
            0.0,
            0.0,
            1.0,
            2.0
          ]
        }
      }
    },
    {
      "name": "Cube",
      "from": [
        6.5,
        5.0,
        7.5
      ],
      "to": [
        9.5,
        5.1,
        8.5
      ],
      "faces": {
        "north": {
          "texture": "#0",
          "uv": [
            0.0,
            0.0,
            1.0,
            0.10000000000000009
          ]
        },
        "east": {
          "texture": "#0",
          "uv": [
            0.0,
            0.0,
            2.0,
            0.10000000000000009
          ]
        },
        "south": {
          "texture": "#0",
          "uv": [
            0.0,
            0.0,
            1.0,
            0.10000000000000009
          ]
        },
        "west": {
          "texture": "#0",
          "uv": [
            0.0,
            0.0,
            2.0,
            0.10000000000000009
          ]
        },
        "up": {
          "texture": "#0",
          "uv": [
            0.0,
            0.0,
            1.0,
            2.0
          ]
        },
        "down": {
          "texture": "#0",
          "uv": [
            0.0,
            0.0,
            1.0,
            2.0
          ]
        }
      }
    },
    {
      "name": "Cube",
      "from": [
        7.8,
        -2.6999999955296516,
        7.8
      ],
      "to": [
        8.1,
        31.30000000447035,
        8.1
      ],
      "faces": {
        "north": {
          "texture": "#0",
          "uv": [
            0.0,
            0.0,
            1.0,
            16.0
          ]
        },
        "east": {
          "texture": "#0",
          "uv": [
            0.0,
            0.0,
            1.0,
            16.0
          ]
        },
        "south": {
          "texture": "#0",
          "uv": [
            0.0,
            0.0,
            1.0,
            16.0
          ]
        },
        "west": {
          "texture": "#0",
          "uv": [
            0.0,
            0.0,
            1.0,
            16.0
          ]
        },
        "up": {
          "texture": "#0",
          "uv": [
            0.0,
            0.0,
            1.0,
            1.0
          ]
        },
        "down": {
          "texture": "#0",
          "uv": [
            0.0,
            0.0,
            1.0,
            1.0
          ]
        }
      }
    },
    {
      "name": "Cube",
      "from": [
        7.7,
        3.3000000044703484,
        9.2
      ],
      "to": [
        8.3,
        6.300000004470348,
        9.799999999999999
      ],
      "rotation": {
        "origin": [
          8.0,
          8.0,
          8.0
        ],
        "axis": "x",
        "angle": -22.5
      },
      "faces": {
        "north": {
          "texture": "#0",
          "uv": [
            0.0,
            0.0,
            1.0,
            16.0
          ]
        },
        "east": {
          "texture": "#0",
          "uv": [
            0.0,
            0.0,
            1.0,
            16.0
          ]
        },
        "south": {
          "texture": "#0",
          "uv": [
            0.0,
            0.0,
            1.0,
            16.0
          ]
        },
        "west": {
          "texture": "#0",
          "uv": [
            0.0,
            0.0,
            1.0,
            16.0
          ]
        },
        "up": {
          "texture": "#0",
          "uv": [
            0.0,
            0.0,
            1.0,
            1.0
          ]
        },
        "down": {
          "texture": "#0",
          "uv": [
            0.0,
            0.0,
            1.0,
            1.0
          ]
        }
      }
    },
    {
      "name": "Cube",
      "from": [
        7.7,
        3.3000000044703484,
        6.199999999999999
      ],
      "to": [
        8.3,
        6.300000004470348,
        6.799999999999999
      ],
      "rotation": {
        "origin": [
          8.0,
          8.0,
          8.0
        ],
        "axis": "x",
        "angle": 22.5
      },
      "faces": {
        "north": {
          "texture": "#0",
          "uv": [
            0.0,
            0.0,
            1.0,
            16.0
          ]
        },
        "east": {
          "texture": "#0",
          "uv": [
            0.0,
            0.0,
            1.0,
            16.0
          ]
        },
        "south": {
          "texture": "#0",
          "uv": [
            0.0,
            0.0,
            1.0,
            16.0
          ]
        },
        "west": {
          "texture": "#0",
          "uv": [
            0.0,
            0.0,
            1.0,
            16.0
          ]
        },
        "up": {
          "texture": "#0",
          "uv": [
            0.0,
            0.0,
            1.0,
            1.0
          ]
        },
        "down": {
          "texture": "#0",
          "uv": [
            0.0,
            0.0,
            1.0,
            1.0
          ]
        }
      }
    },
    {
      "name": "Cube",
      "from": [
        6.2,
        3.3000000044703484,
        7.6
      ],
      "to": [
        6.8,
        6.300000004470348,
        8.2
      ],
      "rotation": {
        "origin": [
          8.0,
          8.0,
          8.0
        ],
        "axis": "z",
        "angle": -22.5
      },
      "faces": {
        "north": {
          "texture": "#0",
          "uv": [
            0.0,
            0.0,
            1.0,
            16.0
          ]
        },
        "east": {
          "texture": "#0",
          "uv": [
            0.0,
            0.0,
            1.0,
            16.0
          ]
        },
        "south": {
          "texture": "#0",
          "uv": [
            0.0,
            0.0,
            1.0,
            16.0
          ]
        },
        "west": {
          "texture": "#0",
          "uv": [
            0.0,
            0.0,
            1.0,
            16.0
          ]
        },
        "up": {
          "texture": "#0",
          "uv": [
            0.0,
            0.0,
            1.0,
            1.0
          ]
        },
        "down": {
          "texture": "#0",
          "uv": [
            0.0,
            0.0,
            1.0,
            1.0
          ]
        }
      }
    },
    {
      "name": "Cube",
      "from": [
        9.2,
        3.3000000044703484,
        7.6
      ],
      "to": [
        9.799999999999999,
        6.300000004470348,
        8.2
      ],
      "rotation": {
        "origin": [
          8.0,
          8.0,
          8.0
        ],
        "axis": "z",
        "angle": 22.5
      },
      "faces": {
        "north": {
          "texture": "#0",
          "uv": [
            0.0,
            0.0,
            1.0,
            16.0
          ]
        },
        "east": {
          "texture": "#0",
          "uv": [
            0.0,
            0.0,
            1.0,
            16.0
          ]
        },
        "south": {
          "texture": "#0",
          "uv": [
            0.0,
            0.0,
            1.0,
            16.0
          ]
        },
        "west": {
          "texture": "#0",
          "uv": [
            0.0,
            0.0,
            1.0,
            16.0
          ]
        },
        "up": {
          "texture": "#0",
          "uv": [
            0.0,
            0.0,
            1.0,
            1.0
          ]
        },
        "down": {
          "texture": "#0",
          "uv": [
            0.0,
            0.0,
            1.0,
            1.0
          ]
        }
      }
    },
    {
      "name": "Cube",
      "from": [
        7.7,
        8.5,
        7.4
      ],
      "to": [
        8.3,
        8.9,
        10.5
      ],
      "rotation": {
        "origin": [
          8.0,
          8.0,
          8.0
        ],
        "axis": "x",
        "angle": 45.0
      },
      "faces": {
        "north": {
          "texture": "#0",
          "uv": [
            0.0,
            0.0,
            1.0,
            16.0
          ]
        },
        "east": {
          "texture": "#0",
          "uv": [
            0.0,
            0.0,
            1.0,
            16.0
          ]
        },
        "south": {
          "texture": "#0",
          "uv": [
            0.0,
            0.0,
            1.0,
            16.0
          ]
        },
        "west": {
          "texture": "#0",
          "uv": [
            0.0,
            0.0,
            1.0,
            16.0
          ]
        },
        "up": {
          "texture": "#0",
          "uv": [
            0.0,
            0.0,
            1.0,
            1.0
          ]
        },
        "down": {
          "texture": "#0",
          "uv": [
            0.0,
            0.0,
            1.0,
            1.0
          ]
        }
      }
    },
    {
      "name": "Cube",
      "from": [
        7.7,
        8.5,
        5.4
      ],
      "to": [
        8.3,
        8.9,
        8.5
      ],
      "rotation": {
        "origin": [
          8.0,
          8.0,
          8.0
        ],
        "axis": "x",
        "angle": -45.0
      },
      "faces": {
        "north": {
          "texture": "#0",
          "uv": [
            0.0,
            0.0,
            1.0,
            16.0
          ]
        },
        "east": {
          "texture": "#0",
          "uv": [
            0.0,
            0.0,
            1.0,
            16.0
          ]
        },
        "south": {
          "texture": "#0",
          "uv": [
            0.0,
            0.0,
            1.0,
            16.0
          ]
        },
        "west": {
          "texture": "#0",
          "uv": [
            0.0,
            0.0,
            1.0,
            16.0
          ]
        },
        "up": {
          "texture": "#0",
          "uv": [
            0.0,
            0.0,
            1.0,
            1.0
          ]
        },
        "down": {
          "texture": "#0",
          "uv": [
            0.0,
            0.0,
            1.0,
            1.0
          ]
        }
      }
    },
    {
      "name": "Cube",
      "from": [
        5.7,
        8.5,
        7.6
      ],
      "to": [
        8.8,
        8.9,
        8.2
      ],
      "rotation": {
        "origin": [
          8.0,
          8.0,
          8.0
        ],
        "axis": "z",
        "angle": 45.0
      },
      "faces": {
        "north": {
          "texture": "#0",
          "uv": [
            0.0,
            0.0,
            1.0,
            16.0
          ]
        },
        "east": {
          "texture": "#0",
          "uv": [
            0.0,
            0.0,
            1.0,
            16.0
          ]
        },
        "south": {
          "texture": "#0",
          "uv": [
            0.0,
            0.0,
            1.0,
            16.0
          ]
        },
        "west": {
          "texture": "#0",
          "uv": [
            0.0,
            0.0,
            1.0,
            16.0
          ]
        },
        "up": {
          "texture": "#0",
          "uv": [
            0.0,
            0.0,
            1.0,
            1.0
          ]
        },
        "down": {
          "texture": "#0",
          "uv": [
            0.0,
            0.0,
            1.0,
            1.0
          ]
        }
      }
    },
    {
      "name": "Cube",
      "from": [
        7.5,
        8.5,
        7.6
      ],
      "to": [
        10.6,
        8.9,
        8.2
      ],
      "rotation": {
        "origin": [
          8.0,
          8.0,
          8.0
        ],
        "axis": "z",
        "angle": -45.0
      },
      "faces": {
        "north": {
          "texture": "#0",
          "uv": [
            0.0,
            0.0,
            1.0,
            16.0
          ]
        },
        "east": {
          "texture": "#0",
          "uv": [
            0.0,
            0.0,
            1.0,
            16.0
          ]
        },
        "south": {
          "texture": "#0",
          "uv": [
            0.0,
            0.0,
            1.0,
            16.0
          ]
        },
        "west": {
          "texture": "#0",
          "uv": [
            0.0,
            0.0,
            1.0,
            16.0
          ]
        },
        "up": {
          "texture": "#0",
          "uv": [
            0.0,
            0.0,
            1.0,
            1.0
          ]
        },
        "down": {
          "texture": "#0",
          "uv": [
            0.0,
            0.0,
            1.0,
            1.0
          ]
        }
      }
    },
    {
      "name": "Cube",
      "from": [
        7.7,
        5.8,
        9.4
      ],
      "to": [
        8.3,
        6.3,
        10.0
      ],
      "rotation": {
        "origin": [
          8.0,
          8.0,
          8.0
        ],
        "axis": "x",
        "angle": -22.5
      },
      "faces": {
        "north": {
          "texture": "#0",
          "uv": [
            0.0,
            0.0,
            1.0,
            16.0
          ]
        },
        "east": {
          "texture": "#0",
          "uv": [
            0.0,
            0.0,
            1.0,
            16.0
          ]
        },
        "south": {
          "texture": "#0",
          "uv": [
            0.0,
            0.0,
            1.0,
            16.0
          ]
        },
        "west": {
          "texture": "#0",
          "uv": [
            0.0,
            0.0,
            1.0,
            16.0
          ]
        },
        "up": {
          "texture": "#0",
          "uv": [
            0.0,
            0.0,
            1.0,
            1.0
          ]
        },
        "down": {
          "texture": "#0",
          "uv": [
            0.0,
            0.0,
            1.0,
            1.0
          ]
        }
      }
    },
    {
      "name": "Cube",
      "from": [
        7.7,
        3.8,
        9.4
      ],
      "to": [
        8.3,
        4.3,
        10.0
      ],
      "rotation": {
        "origin": [
          8.0,
          8.0,
          8.0
        ],
        "axis": "x",
        "angle": -22.5
      },
      "faces": {
        "north": {
          "texture": "#0",
          "uv": [
            0.0,
            0.0,
            1.0,
            16.0
          ]
        },
        "east": {
          "texture": "#0",
          "uv": [
            0.0,
            0.0,
            1.0,
            16.0
          ]
        },
        "south": {
          "texture": "#0",
          "uv": [
            0.0,
            0.0,
            1.0,
            16.0
          ]
        },
        "west": {
          "texture": "#0",
          "uv": [
            0.0,
            0.0,
            1.0,
            16.0
          ]
        },
        "up": {
          "texture": "#0",
          "uv": [
            0.0,
            0.0,
            1.0,
            1.0
          ]
        },
        "down": {
          "texture": "#0",
          "uv": [
            0.0,
            0.0,
            1.0,
            1.0
          ]
        }
      }
    },
    {
      "name": "Cube",
      "from": [
        7.7,
        3.8,
        6.0
      ],
      "to": [
        8.3,
        4.3,
        6.6
      ],
      "rotation": {
        "origin": [
          8.0,
          8.0,
          8.0
        ],
        "axis": "x",
        "angle": 22.5
      },
      "faces": {
        "north": {
          "texture": "#0",
          "uv": [
            0.0,
            0.0,
            1.0,
            16.0
          ]
        },
        "east": {
          "texture": "#0",
          "uv": [
            0.0,
            0.0,
            1.0,
            16.0
          ]
        },
        "south": {
          "texture": "#0",
          "uv": [
            0.0,
            0.0,
            1.0,
            16.0
          ]
        },
        "west": {
          "texture": "#0",
          "uv": [
            0.0,
            0.0,
            1.0,
            16.0
          ]
        },
        "up": {
          "texture": "#0",
          "uv": [
            0.0,
            0.0,
            1.0,
            1.0
          ]
        },
        "down": {
          "texture": "#0",
          "uv": [
            0.0,
            0.0,
            1.0,
            1.0
          ]
        }
      }
    },
    {
      "name": "Cube",
      "from": [
        7.7,
        5.8,
        6.0
      ],
      "to": [
        8.3,
        6.3,
        6.6
      ],
      "rotation": {
        "origin": [
          8.0,
          8.0,
          8.0
        ],
        "axis": "x",
        "angle": 22.5
      },
      "faces": {
        "north": {
          "texture": "#0",
          "uv": [
            0.0,
            0.0,
            1.0,
            16.0
          ]
        },
        "east": {
          "texture": "#0",
          "uv": [
            0.0,
            0.0,
            1.0,
            16.0
          ]
        },
        "south": {
          "texture": "#0",
          "uv": [
            0.0,
            0.0,
            1.0,
            16.0
          ]
        },
        "west": {
          "texture": "#0",
          "uv": [
            0.0,
            0.0,
            1.0,
            16.0
          ]
        },
        "up": {
          "texture": "#0",
          "uv": [
            0.0,
            0.0,
            1.0,
            1.0
          ]
        },
        "down": {
          "texture": "#0",
          "uv": [
            0.0,
            0.0,
            1.0,
            1.0
          ]
        }
      }
    },
    {
      "name": "Cube",
      "from": [
        9.4,
        5.8,
        7.6
      ],
      "to": [
        10.0,
        6.3,
        8.2
      ],
      "rotation": {
        "origin": [
          8.0,
          8.0,
          8.0
        ],
        "axis": "z",
        "angle": 22.5
      },
      "faces": {
        "north": {
          "texture": "#0",
          "uv": [
            0.0,
            0.0,
            1.0,
            16.0
          ]
        },
        "east": {
          "texture": "#0",
          "uv": [
            0.0,
            0.0,
            1.0,
            16.0
          ]
        },
        "south": {
          "texture": "#0",
          "uv": [
            0.0,
            0.0,
            1.0,
            16.0
          ]
        },
        "west": {
          "texture": "#0",
          "uv": [
            0.0,
            0.0,
            1.0,
            16.0
          ]
        },
        "up": {
          "texture": "#0",
          "uv": [
            0.0,
            0.0,
            1.0,
            1.0
          ]
        },
        "down": {
          "texture": "#0",
          "uv": [
            0.0,
            0.0,
            1.0,
            1.0
          ]
        }
      }
    },
    {
      "name": "Cube",
      "from": [
        9.4,
        3.8,
        7.6
      ],
      "to": [
        10.0,
        4.3,
        8.2
      ],
      "rotation": {
        "origin": [
          8.0,
          8.0,
          8.0
        ],
        "axis": "z",
        "angle": 22.5
      },
      "faces": {
        "north": {
          "texture": "#0",
          "uv": [
            0.0,
            0.0,
            1.0,
            16.0
          ]
        },
        "east": {
          "texture": "#0",
          "uv": [
            0.0,
            0.0,
            1.0,
            16.0
          ]
        },
        "south": {
          "texture": "#0",
          "uv": [
            0.0,
            0.0,
            1.0,
            16.0
          ]
        },
        "west": {
          "texture": "#0",
          "uv": [
            0.0,
            0.0,
            1.0,
            16.0
          ]
        },
        "up": {
          "texture": "#0",
          "uv": [
            0.0,
            0.0,
            1.0,
            1.0
          ]
        },
        "down": {
          "texture": "#0",
          "uv": [
            0.0,
            0.0,
            1.0,
            1.0
          ]
        }
      }
    },
    {
      "name": "Cube",
      "from": [
        6.0,
        5.800000000000001,
        7.6
      ],
      "to": [
        6.6,
        6.300000000000001,
        8.2
      ],
      "rotation": {
        "origin": [
          8.0,
          8.0,
          8.0
        ],
        "axis": "z",
        "angle": -22.5
      },
      "faces": {
        "north": {
          "texture": "#0",
          "uv": [
            0.0,
            0.0,
            1.0,
            16.0
          ]
        },
        "east": {
          "texture": "#0",
          "uv": [
            0.0,
            0.0,
            1.0,
            16.0
          ]
        },
        "south": {
          "texture": "#0",
          "uv": [
            0.0,
            0.0,
            1.0,
            16.0
          ]
        },
        "west": {
          "texture": "#0",
          "uv": [
            0.0,
            0.0,
            1.0,
            16.0
          ]
        },
        "up": {
          "texture": "#0",
          "uv": [
            0.0,
            0.0,
            1.0,
            1.0
          ]
        },
        "down": {
          "texture": "#0",
          "uv": [
            0.0,
            0.0,
            1.0,
            1.0
          ]
        }
      }
    },
    {
      "name": "Cube",
      "from": [
        6.0,
        3.8000000000000007,
        7.6
      ],
      "to": [
        6.6,
        4.300000000000001,
        8.2
      ],
      "rotation": {
        "origin": [
          8.0,
          8.0,
          8.0
        ],
        "axis": "z",
        "angle": -22.5
      },
      "faces": {
        "north": {
          "texture": "#0",
          "uv": [
            0.0,
            0.0,
            1.0,
            16.0
          ]
        },
        "east": {
          "texture": "#0",
          "uv": [
            0.0,
            0.0,
            1.0,
            16.0
          ]
        },
        "south": {
          "texture": "#0",
          "uv": [
            0.0,
            0.0,
            1.0,
            16.0
          ]
        },
        "west": {
          "texture": "#0",
          "uv": [
            0.0,
            0.0,
            1.0,
            16.0
          ]
        },
        "up": {
          "texture": "#0",
          "uv": [
            0.0,
            0.0,
            1.0,
            1.0
          ]
        },
        "down": {
          "texture": "#0",
          "uv": [
            0.0,
            0.0,
            1.0,
            1.0
          ]
        }
      }
    },
    {
      "name": "Cube",
      "from": [
        6.5,
        3.9,
        7.6
      ],
      "to": [
        7.1,
        6.4,
        8.2
      ],
      "rotation": {
        "origin": [
          8.0,
          8.0,
          8.0
        ],
        "axis": "z",
        "angle": -22.5
      },
      "faces": {
        "north": {
          "texture": "#0",
          "uv": [
            0.0,
            0.0,
            1.0,
            16.0
          ]
        },
        "east": {
          "texture": "#0",
          "uv": [
            0.0,
            0.0,
            1.0,
            16.0
          ]
        },
        "south": {
          "texture": "#0",
          "uv": [
            0.0,
            0.0,
            1.0,
            16.0
          ]
        },
        "west": {
          "texture": "#0",
          "uv": [
            0.0,
            0.0,
            1.0,
            16.0
          ]
        },
        "up": {
          "texture": "#0",
          "uv": [
            0.0,
            0.0,
            1.0,
            1.0
          ]
        },
        "down": {
          "texture": "#0",
          "uv": [
            0.0,
            0.0,
            1.0,
            1.0
          ]
        }
      }
    },
    {
      "name": "Cube",
      "from": [
        8.9,
        3.9,
        7.6
      ],
      "to": [
        9.5,
        6.4,
        8.2
      ],
      "rotation": {
        "origin": [
          8.0,
          8.0,
          8.0
        ],
        "axis": "z",
        "angle": 22.5
      },
      "faces": {
        "north": {
          "texture": "#0",
          "uv": [
            0.0,
            0.0,
            1.0,
            16.0
          ]
        },
        "east": {
          "texture": "#0",
          "uv": [
            0.0,
            0.0,
            1.0,
            16.0
          ]
        },
        "south": {
          "texture": "#0",
          "uv": [
            0.0,
            0.0,
            1.0,
            16.0
          ]
        },
        "west": {
          "texture": "#0",
          "uv": [
            0.0,
            0.0,
            1.0,
            16.0
          ]
        },
        "up": {
          "texture": "#0",
          "uv": [
            0.0,
            0.0,
            1.0,
            1.0
          ]
        },
        "down": {
          "texture": "#0",
          "uv": [
            0.0,
            0.0,
            1.0,
            1.0
          ]
        }
      }
    },
    {
      "name": "Cube",
      "from": [
        7.7,
        3.9,
        6.5
      ],
      "to": [
        8.3,
        6.4,
        7.1
      ],
      "rotation": {
        "origin": [
          8.0,
          8.0,
          8.0
        ],
        "axis": "x",
        "angle": 22.5
      },
      "faces": {
        "north": {
          "texture": "#0",
          "uv": [
            0.0,
            0.0,
            1.0,
            16.0
          ]
        },
        "east": {
          "texture": "#0",
          "uv": [
            0.0,
            0.0,
            1.0,
            16.0
          ]
        },
        "south": {
          "texture": "#0",
          "uv": [
            0.0,
            0.0,
            1.0,
            16.0
          ]
        },
        "west": {
          "texture": "#0",
          "uv": [
            0.0,
            0.0,
            1.0,
            16.0
          ]
        },
        "up": {
          "texture": "#0",
          "uv": [
            0.0,
            0.0,
            1.0,
            1.0
          ]
        },
        "down": {
          "texture": "#0",
          "uv": [
            0.0,
            0.0,
            1.0,
            1.0
          ]
        }
      }
    },
    {
      "name": "Cube",
      "from": [
        7.7,
        3.9,
        8.9
      ],
      "to": [
        8.3,
        6.4,
        9.5
      ],
      "rotation": {
        "origin": [
          8.0,
          8.0,
          8.0
        ],
        "axis": "x",
        "angle": -22.5
      },
      "faces": {
        "north": {
          "texture": "#0",
          "uv": [
            0.0,
            0.0,
            1.0,
            16.0
          ]
        },
        "east": {
          "texture": "#0",
          "uv": [
            0.0,
            0.0,
            1.0,
            16.0
          ]
        },
        "south": {
          "texture": "#0",
          "uv": [
            0.0,
            0.0,
            1.0,
            16.0
          ]
        },
        "west": {
          "texture": "#0",
          "uv": [
            0.0,
            0.0,
            1.0,
            16.0
          ]
        },
        "up": {
          "texture": "#0",
          "uv": [
            0.0,
            0.0,
            1.0,
            1.0
          ]
        },
        "down": {
          "texture": "#0",
          "uv": [
            0.0,
            0.0,
            1.0,
            1.0
          ]
        }
      }
    },
    {
      "name": "Cube",
      "from": [
        7.7,
        4.9,
        9.9
      ],
      "to": [
        8.3,
        5.9,
        10.5
      ],
      "faces": {
        "north": {
          "texture": "#0",
          "uv": [
            0.0,
            0.0,
            1.0,
            16.0
          ]
        },
        "east": {
          "texture": "#0",
          "uv": [
            0.0,
            0.0,
            1.0,
            16.0
          ]
        },
        "south": {
          "texture": "#0",
          "uv": [
            0.0,
            0.0,
            1.0,
            16.0
          ]
        },
        "west": {
          "texture": "#0",
          "uv": [
            0.0,
            0.0,
            1.0,
            16.0
          ]
        },
        "up": {
          "texture": "#0",
          "uv": [
            0.0,
            0.0,
            1.0,
            1.0
          ]
        },
        "down": {
          "texture": "#0",
          "uv": [
            0.0,
            0.0,
            1.0,
            1.0
          ]
        }
      }
    },
    {
      "name": "Cube",
      "from": [
        7.7,
        4.9,
        5.5
      ],
      "to": [
        8.3,
        5.9,
        6.1
      ],
      "faces": {
        "north": {
          "texture": "#0",
          "uv": [
            0.0,
            0.0,
            1.0,
            16.0
          ]
        },
        "east": {
          "texture": "#0",
          "uv": [
            0.0,
            0.0,
            1.0,
            16.0
          ]
        },
        "south": {
          "texture": "#0",
          "uv": [
            0.0,
            0.0,
            1.0,
            16.0
          ]
        },
        "west": {
          "texture": "#0",
          "uv": [
            0.0,
            0.0,
            1.0,
            16.0
          ]
        },
        "up": {
          "texture": "#0",
          "uv": [
            0.0,
            0.0,
            1.0,
            1.0
          ]
        },
        "down": {
          "texture": "#0",
          "uv": [
            0.0,
            0.0,
            1.0,
            1.0
          ]
        }
      }
    },
    {
      "name": "Cube",
      "from": [
        9.9,
        4.9,
        7.6
      ],
      "to": [
        10.5,
        5.9,
        8.2
      ],
      "faces": {
        "north": {
          "texture": "#0",
          "uv": [
            0.0,
            0.0,
            1.0,
            16.0
          ]
        },
        "east": {
          "texture": "#0",
          "uv": [
            0.0,
            0.0,
            1.0,
            16.0
          ]
        },
        "south": {
          "texture": "#0",
          "uv": [
            0.0,
            0.0,
            1.0,
            16.0
          ]
        },
        "west": {
          "texture": "#0",
          "uv": [
            0.0,
            0.0,
            1.0,
            16.0
          ]
        },
        "up": {
          "texture": "#0",
          "uv": [
            0.0,
            0.0,
            1.0,
            1.0
          ]
        },
        "down": {
          "texture": "#0",
          "uv": [
            0.0,
            0.0,
            1.0,
            1.0
          ]
        }
      }
    },
    {
      "name": "Cube",
      "from": [
        5.5,
        4.9,
        7.6
      ],
      "to": [
        6.1,
        5.9,
        8.2
      ],
      "faces": {
        "north": {
          "texture": "#0",
          "uv": [
            0.0,
            0.0,
            1.0,
            16.0
          ]
        },
        "east": {
          "texture": "#0",
          "uv": [
            0.0,
            0.0,
            1.0,
            16.0
          ]
        },
        "south": {
          "texture": "#0",
          "uv": [
            0.0,
            0.0,
            1.0,
            16.0
          ]
        },
        "west": {
          "texture": "#0",
          "uv": [
            0.0,
            0.0,
            1.0,
            16.0
          ]
        },
        "up": {
          "texture": "#0",
          "uv": [
            0.0,
            0.0,
            1.0,
            1.0
          ]
        },
        "down": {
          "texture": "#0",
          "uv": [
            0.0,
            0.0,
            1.0,
            1.0
          ]
        }
      }
    },
    {
      "name": "Cube",
      "from": [
        7.7,
        6.0,
        6.8
      ],
      "to": [
        8.2,
        7.0,
        7.8
      ],
      "faces": {
        "north": {
          "texture": "#1",
          "uv": [
            0.0,
            0.0,
            0.5,
            1.0
          ]
        },
        "east": {
          "texture": "#1",
          "uv": [
            0.0,
            0.0,
            1.0,
            1.0
          ]
        },
        "south": {
          "texture": "#1",
          "uv": [
            0.0,
            0.0,
            0.5,
            1.0
          ]
        },
        "west": {
          "texture": "#1",
          "uv": [
            0.0,
            0.0,
            1.0,
            1.0
          ]
        },
        "up": {
          "texture": "#1",
          "uv": [
            0.0,
            0.0,
            0.5,
            1.0
          ]
        },
        "down": {
          "texture": "#1",
          "uv": [
            0.0,
            0.0,
            0.5,
            1.0
          ]
        }
      }
    },
    {
      "name": "Cube",
      "from": [
        7.7,
        6.0,
        8.2
      ],
      "to": [
        8.2,
        7.0,
        9.2
      ],
      "faces": {
        "north": {
          "texture": "#2",
          "uv": [
            0.0,
            0.0,
            0.5,
            1.0
          ]
        },
        "east": {
          "texture": "#2",
          "uv": [
            0.0,
            0.0,
            1.0,
            1.0
          ]
        },
        "south": {
          "texture": "#2",
          "uv": [
            0.0,
            0.0,
            0.5,
            1.0
          ]
        },
        "west": {
          "texture": "#2",
          "uv": [
            0.0,
            0.0,
            1.0,
            1.0
          ]
        },
        "up": {
          "texture": "#2",
          "uv": [
            0.0,
            0.0,
            0.5,
            1.0
          ]
        },
        "down": {
          "texture": "#2",
          "uv": [
            0.0,
            0.0,
            0.5,
            1.0
          ]
        }
      }
    },
    {
      "name": "Cube",
      "from": [
        6.8,
        6.0,
        7.7
      ],
      "to": [
        7.3,
        7.0,
        8.2
      ],
      "faces": {
        "north": {
          "texture": "#3",
          "uv": [
            0.0,
            0.0,
            0.5,
            1.0
          ]
        },
        "east": {
          "texture": "#3",
          "uv": [
            0.0,
            0.0,
            0.5,
            1.0
          ]
        },
        "south": {
          "texture": "#3",
          "uv": [
            0.0,
            0.0,
            0.5,
            1.0
          ]
        },
        "west": {
          "texture": "#3",
          "uv": [
            0.0,
            0.0,
            0.5,
            1.0
          ]
        },
        "up": {
          "texture": "#3",
          "uv": [
            0.0,
            0.0,
            0.5,
            0.5
          ]
        },
        "down": {
          "texture": "#3",
          "uv": [
            0.0,
            0.0,
            0.5,
            0.5
          ]
        }
      }
    },
    {
      "name": "Cube",
      "from": [
        8.7,
        6.0,
        7.7
      ],
      "to": [
        9.2,
        7.0,
        8.2
      ],
      "faces": {
        "north": {
          "texture": "#4",
          "uv": [
            0.0,
            0.0,
            0.5,
            1.0
          ]
        },
        "east": {
          "texture": "#4",
          "uv": [
            0.0,
            0.0,
            0.5,
            1.0
          ]
        },
        "south": {
          "texture": "#4",
          "uv": [
            0.0,
            0.0,
            0.5,
            1.0
          ]
        },
        "west": {
          "texture": "#4",
          "uv": [
            0.0,
            0.0,
            -13.5,
            1.0
          ]
        },
        "up": {
          "texture": "#4",
          "uv": [
            0.0,
            0.0,
            0.5,
            0.5
          ]
        },
        "down": {
          "texture": "#4",
          "uv": [
            0.0,
            0.0,
            0.5,
            0.5
          ]
        }
      }
    },
    {
      "name": "Cube",
      "from": [
        7.699999999999999,
        7.0,
        8.1
      ],
      "to": [
        8.2,
        10.5,
        8.599999999999998
      ],
      "faces": {
        "north": {
          "texture": "#0",
          "uv": [
            0.0,
            0.0,
            1.0,
            16.0
          ]
        },
        "east": {
          "texture": "#0",
          "uv": [
            0.0,
            0.0,
            1.0,
            16.0
          ]
        },
        "south": {
          "texture": "#0",
          "uv": [
            0.0,
            0.0,
            1.0,
            16.0
          ]
        },
        "west": {
          "texture": "#0",
          "uv": [
            0.0,
            0.0,
            1.0,
            16.0
          ]
        },
        "up": {
          "texture": "#0",
          "uv": [
            0.0,
            0.0,
            1.0,
            1.0
          ]
        },
        "down": {
          "texture": "#0",
          "uv": [
            0.0,
            0.0,
            1.0,
            1.0
          ]
        }
      }
    },
    {
      "name": "Cube",
      "from": [
        7.699999999999999,
        10.0,
        6.300000000000001
      ],
      "to": [
        8.2,
        11.5,
        6.8
      ],
      "rotation": {
        "origin": [
          8.0,
          8.0,
          8.0
        ],
        "axis": "x",
        "angle": 22.5
      },
      "faces": {
        "north": {
          "texture": "#0",
          "uv": [
            0.0,
            0.0,
            1.0,
            16.0
          ]
        },
        "east": {
          "texture": "#0",
          "uv": [
            0.0,
            0.0,
            1.0,
            16.0
          ]
        },
        "south": {
          "texture": "#0",
          "uv": [
            0.0,
            0.0,
            1.0,
            16.0
          ]
        },
        "west": {
          "texture": "#0",
          "uv": [
            0.0,
            0.0,
            1.0,
            16.0
          ]
        },
        "up": {
          "texture": "#0",
          "uv": [
            0.0,
            0.0,
            1.0,
            1.0
          ]
        },
        "down": {
          "texture": "#0",
          "uv": [
            0.0,
            0.0,
            1.0,
            1.0
          ]
        }
      }
    },
    {
      "name": "Cube",
      "from": [
        7.699999999999999,
        9.5,
        7.2
      ],
      "to": [
        8.2,
        10.5,
        7.699999999999999
      ],
      "faces": {
        "north": {
          "texture": "#0",
          "uv": [
            0.0,
            0.0,
            1.0,
            16.0
          ]
        },
        "east": {
          "texture": "#0",
          "uv": [
            0.0,
            0.0,
            1.0,
            16.0
          ]
        },
        "south": {
          "texture": "#0",
          "uv": [
            0.0,
            0.0,
            1.0,
            16.0
          ]
        },
        "west": {
          "texture": "#0",
          "uv": [
            0.0,
            0.0,
            1.0,
            16.0
          ]
        },
        "up": {
          "texture": "#0",
          "uv": [
            0.0,
            0.0,
            1.0,
            1.0
          ]
        },
        "down": {
          "texture": "#0",
          "uv": [
            0.0,
            0.0,
            1.0,
            1.0
          ]
        }
      }
    },
    {
      "name": "Cube",
      "from": [
        7.699999999999999,
        9.0,
        7.9
      ],
      "to": [
        8.2,
        9.7,
        8.399999999999999
      ],
      "rotation": {
        "origin": [
          8.0,
          8.0,
          8.0
        ],
        "axis": "x",
        "angle": -22.5
      },
      "faces": {
        "north": {
          "texture": "#0",
          "uv": [
            0.0,
            0.0,
            1.0,
            16.0
          ]
        },
        "east": {
          "texture": "#0",
          "uv": [
            0.0,
            0.0,
            1.0,
            16.0
          ]
        },
        "south": {
          "texture": "#0",
          "uv": [
            0.0,
            0.0,
            1.0,
            16.0
          ]
        },
        "west": {
          "texture": "#0",
          "uv": [
            0.0,
            0.0,
            1.0,
            16.0
          ]
        },
        "up": {
          "texture": "#0",
          "uv": [
            0.0,
            0.0,
            1.0,
            1.0
          ]
        },
        "down": {
          "texture": "#0",
          "uv": [
            0.0,
            0.0,
            1.0,
            1.0
          ]
        }
      }
    },
    {
      "name": "Cube",
      "from": [
        7.699999999999999,
        3.4,
        6.6
      ],
      "to": [
        8.2,
        4.4,
        7.099999999999999
      ],
      "rotation": {
        "origin": [
          8.0,
          8.0,
          8.0
        ],
        "axis": "x",
        "angle": -22.5
      },
      "faces": {
        "north": {
          "texture": "#0",
          "uv": [
            0.0,
            0.0,
            1.0,
            16.0
          ]
        },
        "east": {
          "texture": "#0",
          "uv": [
            0.0,
            0.0,
            1.0,
            16.0
          ]
        },
        "south": {
          "texture": "#0",
          "uv": [
            0.0,
            0.0,
            1.0,
            16.0
          ]
        },
        "west": {
          "texture": "#0",
          "uv": [
            0.0,
            0.0,
            1.0,
            16.0
          ]
        },
        "up": {
          "texture": "#0",
          "uv": [
            0.0,
            0.0,
            1.0,
            1.0
          ]
        },
        "down": {
          "texture": "#0",
          "uv": [
            0.0,
            0.0,
            1.0,
            1.0
          ]
        }
      }
    },
    {
      "name": "Cube",
      "from": [
        7.699999999999999,
        2.8,
        7.199999999999999
      ],
      "to": [
        8.2,
        4.3,
        7.699999999999998
      ],
      "faces": {
        "north": {
          "texture": "#0",
          "uv": [
            0.0,
            0.0,
            1.0,
            16.0
          ]
        },
        "east": {
          "texture": "#0",
          "uv": [
            0.0,
            0.0,
            1.0,
            16.0
          ]
        },
        "south": {
          "texture": "#0",
          "uv": [
            0.0,
            0.0,
            1.0,
            16.0
          ]
        },
        "west": {
          "texture": "#0",
          "uv": [
            0.0,
            0.0,
            1.0,
            16.0
          ]
        },
        "up": {
          "texture": "#0",
          "uv": [
            0.0,
            0.0,
            1.0,
            1.0
          ]
        },
        "down": {
          "texture": "#0",
          "uv": [
            0.0,
            0.0,
            1.0,
            1.0
          ]
        }
      }
    }
  ],
  "display": {
    "thirdperson_righthand": {
      "rotation": [
        0,
        -190,
        0
      ],
      "translation": [
        0,
        5,
        0
      ],
      "scale": [
        1,
        1,
        1
      ]
    },
    "head": {
      "rotation": [
        45,
        0,
        90
      ],
      "translation": [
        0.7,
        0,
        0
      ],
      "scale": [
        1.2,
        1.2,
        1.2
      ]
    },
    "firstperson_righthand": {
      "rotation": [
        0,
        -190,
        0
      ],
      "translation": [
        0,
        6,
        2
      ],
      "scale": [
        1,
        1,
        1
      ]
    },
    "gui": {
      "rotation": [
        0,
        90,
        0
      ],
      "translation": [
        0,
        2,
        0
      ],
      "scale": [
        1,
        1,
        1
      ]
    }
  }
}
