{
  "textures": {
    "0": "blocks/awool_colored_cyanv",
    "2": "blocks/awool_colored_cyanv",
    "3": "blocks/awool_colored_cyanv"
  },
  "elements": [
    {
      "name": "cube",
      "from": [
        6.375,
        15.3125,
        7.125
      ],
      "to": [
        7.1875,
        17.0625,
        8.875
      ],
      "faces": {
        "north": {
          "uv": [
            0,
            0,
            0.5,
            1.75
          ],
          "texture": "#2"
        },
        "east": {
          "uv": [
            0,
            0,
            1.75,
            1.75
          ],
          "texture": "#2"
        },
        "south": {
          "uv": [
            0,
            0,
            0.5,
            1.75
          ],
          "texture": "#2"
        },
        "west": {
          "uv": [
            0,
            0,
            1.75,
            1.75
          ],
          "texture": "#2"
        },
        "up": {
          "uv": [
            0,
            0,
            0.5,
            1.75
          ],
          "texture": "#2"
        },
        "down": {
          "uv": [
            0,
            0,
            0.5,
            1.75
          ],
          "texture": "#2"
        }
      }
    },
    {
      "name": "cube",
      "from": [
        6.4375,
        15.9375,
        8.375
      ],
      "to": [
        9.1875,
        16.4375,
        8.9375
      ],
      "faces": {
        "north": {
          "uv": [
            0,
            0,
            2.75,
            0.5
          ],
          "texture": "#3"
        },
        "east": {
          "uv": [
            0,
            0,
            0.5625,
            0.5
          ],
          "texture": "#3"
        },
        "south": {
          "uv": [
            0,
            0,
            2.75,
            0.5
          ],
          "texture": "#3"
        },
        "west": {
          "uv": [
            0,
            0,
            0.5625,
            0.5
          ],
          "texture": "#3"
        },
        "up": {
          "uv": [
            0,
            0,
            2.75,
            0.5625
          ],
          "texture": "#3"
        },
        "down": {
          "uv": [
            0,
            0,
            2.75,
            0.5625
          ],
          "texture": "#3"
        }
      }
    },
    {
      "name": "cube",
      "from": [
        6.4375,
        15.9375,
        7.0625
      ],
      "to": [
        9.1875,
        16.4375,
        7.625
      ],
      "faces": {
        "north": {
          "uv": [
            0,
            0,
            2.75,
            0.5
          ],
          "texture": "#3"
        },
        "east": {
          "uv": [
            0,
            0,
            0.5625,
            0.5
          ],
          "texture": "#3"
        },
        "south": {
          "uv": [
            0,
            0,
            2.75,
            0.5
          ],
          "texture": "#3"
        },
        "west": {
          "uv": [
            0,
            0,
            0.5625,
            0.5
          ],
          "texture": "#3"
        },
        "up": {
          "uv": [
            0,
            0,
            2.75,
            0.5625
          ],
          "texture": "#3"
        },
        "down": {
          "uv": [
            0,
            0,
            2.75,
            0.5625
          ],
          "texture": "#3"
        }
      }
    },
    {
      "name": "cube",
      "from": [
        6.4375,
        16.625,
        7.75
      ],
      "to": [
        9.1875,
        17.125,
        8.25
      ],
      "faces": {
        "north": {
          "uv": [
            0,
            0,
            2.75,
            0.5
          ],
          "texture": "#3"
        },
        "east": {
          "uv": [
            0,
            0,
            0.5,
            0.5
          ],
          "texture": "#3"
        },
        "south": {
          "uv": [
            0,
            0,
            2.75,
            0.5
          ],
          "texture": "#3"
        },
        "west": {
          "uv": [
            0,
            0,
            0.5,
            0.5
          ],
          "texture": "#3"
        },
        "up": {
          "uv": [
            0,
            0,
            2.75,
            0.5
          ],
          "texture": "#3"
        },
        "down": {
          "uv": [
            0,
            0,
            2.75,
            0.5
          ],
          "texture": "#3"
        }
      }
    },
    {
      "name": "cube",
      "from": [
        6.4375,
        15.25,
        7.75
      ],
      "to": [
        9.1875,
        15.75,
        8.25
      ],
      "faces": {
        "north": {
          "uv": [
            0,
            0,
            2.75,
            0.5
          ],
          "texture": "#3"
        },
        "east": {
          "uv": [
            0,
            0,
            0.5,
            0.5
          ],
          "texture": "#3"
        },
        "south": {
          "uv": [
            0,
            0,
            2.75,
            0.5
          ],
          "texture": "#3"
        },
        "west": {
          "uv": [
            0,
            0,
            0.5,
            0.5
          ],
          "texture": "#3"
        },
        "up": {
          "uv": [
            0,
            0,
            2.75,
            0.5
          ],
          "texture": "#3"
        },
        "down": {
          "uv": [
            0,
            0,
            2.75,
            0.5
          ],
          "texture": "#3"
        }
      }
    },
    {
      "name": "cube",
      "from": [
        6.4375,
        15.375,
        8.3125
      ],
      "to": [
        9.1875,
        15.875,
        8.8125
      ],
      "faces": {
        "north": {
          "uv": [
            0,
            0,
            2.75,
            0.5
          ],
          "texture": "#3"
        },
        "east": {
          "uv": [
            0,
            0,
            0.5,
            0.5
          ],
          "texture": "#3"
        },
        "south": {
          "uv": [
            0,
            0,
            2.75,
            0.5
          ],
          "texture": "#3"
        },
        "west": {
          "uv": [
            0,
            0,
            0.5,
            0.5
          ],
          "texture": "#3"
        },
        "up": {
          "uv": [
            0,
            0,
            2.75,
            0.5
          ],
          "texture": "#3"
        },
        "down": {
          "uv": [
            0,
            0,
            2.75,
            0.5
          ],
          "texture": "#3"
        }
      }
    },
    {
      "name": "cube",
      "from": [
        6.4375,
        15.375,
        7.1875
      ],
      "to": [
        9.1875,
        15.875,
        7.6875
      ],
      "faces": {
        "north": {
          "uv": [
            0,
            0,
            2.75,
            0.5
          ],
          "texture": "#3"
        },
        "east": {
          "uv": [
            0,
            0,
            0.5,
            0.5
          ],
          "texture": "#3"
        },
        "south": {
          "uv": [
            0,
            0,
            2.75,
            0.5
          ],
          "texture": "#3"
        },
        "west": {
          "uv": [
            0,
            0,
            0.5,
            0.5
          ],
          "texture": "#3"
        },
        "up": {
          "uv": [
            0,
            0,
            2.75,
            0.5
          ],
          "texture": "#3"
        },
        "down": {
          "uv": [
            0,
            0,
            2.75,
            0.5
          ],
          "texture": "#3"
        }
      }
    },
    {
      "name": "cube",
      "from": [
        6.4375,
        16.5,
        7.1875
      ],
      "to": [
        9.1875,
        17,
        7.6875
      ],
      "faces": {
        "north": {
          "uv": [
            0,
            0,
            2.75,
            0.5
          ],
          "texture": "#3"
        },
        "east": {
          "uv": [
            0,
            0,
            0.5,
            0.5
          ],
          "texture": "#3"
        },
        "south": {
          "uv": [
            0,
            0,
            2.75,
            0.5
          ],
          "texture": "#3"
        },
        "west": {
          "uv": [
            0,
            0,
            0.5,
            0.5
          ],
          "texture": "#3"
        },
        "up": {
          "uv": [
            0,
            0,
            2.75,
            0.5
          ],
          "texture": "#3"
        },
        "down": {
          "uv": [
            0,
            0,
            2.75,
            0.5
          ],
          "texture": "#3"
        }
      }
    },
    {
      "name": "cube",
      "from": [
        6.4375,
        16.5,
        8.3125
      ],
      "to": [
        9.1875,
        17,
        8.8125
      ],
      "faces": {
        "north": {
          "uv": [
            0,
            0,
            2.75,
            0.5
          ],
          "texture": "#3"
        },
        "east": {
          "uv": [
            0,
            0,
            0.5,
            0.5
          ],
          "texture": "#3"
        },
        "south": {
          "uv": [
            0,
            0,
            2.75,
            0.5
          ],
          "texture": "#3"
        },
        "west": {
          "uv": [
            0,
            0,
            0.5,
            0.5
          ],
          "texture": "#3"
        },
        "up": {
          "uv": [
            0,
            0,
            2.75,
            0.5
          ],
          "texture": "#3"
        },
        "down": {
          "uv": [
            0,
            0,
            2.75,
            0.5
          ],
          "texture": "#3"
        }
      }
    },
    {
      "name": "cube",
      "from": [
        8.75,
        15.3125,
        7.125
      ],
      "to": [
        9.25,
        17.0625,
        8.875
      ],
      "faces": {
        "north": {
          "uv": [
            0,
            0,
            0.5,
            1.75
          ],
          "texture": "#2"
        },
        "east": {
          "uv": [
            0,
            0,
            1.75,
            1.75
          ],
          "texture": "#2"
        },
        "south": {
          "uv": [
            0,
            0,
            0.5,
            1.75
          ],
          "texture": "#2"
        },
        "west": {
          "uv": [
            0,
            0,
            1.75,
            1.75
          ],
          "texture": "#2"
        },
        "up": {
          "uv": [
            0,
            0,
            0.5,
            1.75
          ],
          "texture": "#2"
        },
        "down": {
          "uv": [
            0,
            0,
            0.5,
            1.75
          ],
          "texture": "#2"
        }
      }
    },
    {
      "name": "cube",
      "from": [
        8.75,
        15.875,
        7
      ],
      "to": [
        9.25,
        16.5,
        9
      ],
      "faces": {
        "north": {
          "uv": [
            0,
            0,
            0.5,
            0.625
          ],
          "texture": "#2"
        },
        "east": {
          "uv": [
            0,
            0,
            2,
            0.625
          ],
          "texture": "#2"
        },
        "south": {
          "uv": [
            0,
            0,
            0.5,
            0.625
          ],
          "texture": "#2"
        },
        "west": {
          "uv": [
            0,
            0,
            2,
            0.625
          ],
          "texture": "#2"
        },
        "up": {
          "uv": [
            0,
            0,
            0.5,
            2
          ],
          "texture": "#2"
        },
        "down": {
          "uv": [
            0,
            0,
            0.5,
            2
          ],
          "texture": "#2"
        }
      }
    },
    {
      "name": "cube",
      "from": [
        6.375,
        15.875,
        7
      ],
      "to": [
        6.875,
        16.5,
        9
      ],
      "faces": {
        "north": {
          "uv": [
            0,
            0,
            0.5,
            0.625
          ],
          "texture": "#2"
        },
        "east": {
          "uv": [
            0,
            0,
            2,
            0.625
          ],
          "texture": "#2"
        },
        "south": {
          "uv": [
            0,
            0,
            0.5,
            0.625
          ],
          "texture": "#2"
        },
        "west": {
          "uv": [
            0,
            0,
            2,
            0.625
          ],
          "texture": "#2"
        },
        "up": {
          "uv": [
            0,
            0,
            0.5,
            2
          ],
          "texture": "#2"
        },
        "down": {
          "uv": [
            0,
            0,
            0.5,
            2
          ],
          "texture": "#2"
        }
      }
    },
    {
      "name": "cube",
      "from": [
        8.75,
        15.1875,
        7.6875
      ],
      "to": [
        9.25,
        17.1875,
        8.3125
      ],
      "faces": {
        "north": {
          "uv": [
            0,
            0,
            0.5,
            2
          ],
          "texture": "#2"
        },
        "east": {
          "uv": [
            0,
            0,
            0.625,
            2
          ],
          "texture": "#2"
        },
        "south": {
          "uv": [
            0,
            0,
            0.5,
            2
          ],
          "texture": "#2"
        },
        "west": {
          "uv": [
            0,
            0,
            0.625,
            2
          ],
          "texture": "#2"
        },
        "up": {
          "uv": [
            0,
            0,
            0.5,
            0.625
          ],
          "texture": "#2"
        },
        "down": {
          "uv": [
            0,
            0,
            0.5,
            0.625
          ],
          "texture": "#2"
        }
      }
    },
    {
      "name": "cube",
      "from": [
        6.375,
        15.1875,
        7.6875
      ],
      "to": [
        7.125,
        17.1875,
        8.3125
      ],
      "faces": {
        "north": {
          "uv": [
            0,
            0,
            0.5,
            2
          ],
          "texture": "#2"
        },
        "east": {
          "uv": [
            0,
            0,
            0.625,
            2
          ],
          "texture": "#2"
        },
        "south": {
          "uv": [
            0,
            0,
            0.5,
            2
          ],
          "texture": "#2"
        },
        "west": {
          "uv": [
            0,
            0,
            0.625,
            2
          ],
          "texture": "#2"
        },
        "up": {
          "uv": [
            0,
            0,
            0.5,
            0.625
          ],
          "texture": "#2"
        },
        "down": {
          "uv": [
            0,
            0,
            0.5,
            0.625
          ],
          "texture": "#2"
        }
      }
    },
    {
      "name": "cube",
      "from": [
        8.25,
        15.875,
        7
      ],
      "to": [
        8.75,
        16.5,
        9
      ],
      "faces": {
        "north": {
          "uv": [
            0,
            0,
            0.5,
            0.625
          ],
          "texture": "#2"
        },
        "east": {
          "uv": [
            0,
            0,
            2,
            0.625
          ],
          "texture": "#2"
        },
        "south": {
          "uv": [
            0,
            0,
            0.5,
            0.625
          ],
          "texture": "#2"
        },
        "west": {
          "uv": [
            0,
            0,
            2,
            0.625
          ],
          "texture": "#2"
        },
        "up": {
          "uv": [
            0,
            0,
            0.5,
            2
          ],
          "texture": "#2"
        },
        "down": {
          "uv": [
            0,
            0,
            0.5,
            2
          ],
          "texture": "#2"
        }
      }
    },
    {
      "name": "cube",
      "from": [
        8.25,
        15.3125,
        7.125
      ],
      "to": [
        8.75,
        15.9375,
        8.875
      ],
      "faces": {
        "north": {
          "uv": [
            0,
            0,
            0.5,
            0.625
          ],
          "texture": "#2"
        },
        "east": {
          "uv": [
            0,
            0,
            1.75,
            0.625
          ],
          "texture": "#2"
        },
        "south": {
          "uv": [
            0,
            0,
            0.5,
            0.625
          ],
          "texture": "#2"
        },
        "west": {
          "uv": [
            0,
            0,
            1.75,
            0.625
          ],
          "texture": "#2"
        },
        "up": {
          "uv": [
            0,
            0,
            0.5,
            1.75
          ],
          "texture": "#2"
        },
        "down": {
          "uv": [
            0,
            0,
            0.5,
            1.75
          ],
          "texture": "#2"
        }
      }
    },
    {
      "name": "cube",
      "from": [
        8.25,
        16.5,
        7.125
      ],
      "to": [
        8.75,
        17.0625,
        8.875
      ],
      "faces": {
        "north": {
          "uv": [
            0,
            0,
            0.5,
            0.5625
          ],
          "texture": "#2"
        },
        "east": {
          "uv": [
            0,
            0,
            1.75,
            0.5625
          ],
          "texture": "#2"
        },
        "south": {
          "uv": [
            0,
            0,
            0.5,
            0.5625
          ],
          "texture": "#2"
        },
        "west": {
          "uv": [
            0,
            0,
            1.75,
            0.5625
          ],
          "texture": "#2"
        },
        "up": {
          "uv": [
            0,
            0,
            0.5,
            1.75
          ],
          "texture": "#2"
        },
        "down": {
          "uv": [
            0,
            0,
            0.5,
            1.75
          ],
          "texture": "#2"
        }
      }
    },
    {
      "name": "cube",
      "from": [
        8.25,
        15.1875,
        7.6875
      ],
      "to": [
        8.75,
        17.1875,
        8.3125
      ],
      "faces": {
        "north": {
          "uv": [
            0,
            0,
            0.5,
            2
          ],
          "texture": "#2"
        },
        "east": {
          "uv": [
            0,
            0,
            0.625,
            2
          ],
          "texture": "#2"
        },
        "south": {
          "uv": [
            0,
            0,
            0.5,
            2
          ],
          "texture": "#2"
        },
        "west": {
          "uv": [
            0,
            0,
            0.625,
            2
          ],
          "texture": "#2"
        },
        "up": {
          "uv": [
            0,
            0,
            0.5,
            0.625
          ],
          "texture": "#2"
        },
        "down": {
          "uv": [
            0,
            0,
            0.5,
            0.625
          ],
          "texture": "#2"
        }
      }
    },
    {
      "name": "cube",
      "from": [
        7.5,
        -0.8125,
        7.6875
      ],
      "to": [
        8,
        15.125,
        8.3125
      ],
      "faces": {
        "north": {
          "uv": [
            0,
            0,
            0.5,
            2
          ],
          "texture": "#2"
        },
        "east": {
          "uv": [
            0,
            0,
            0.625,
            2
          ],
          "texture": "#2"
        },
        "south": {
          "uv": [
            0,
            0,
            0.5,
            2
          ],
          "texture": "#2"
        },
        "west": {
          "uv": [
            0,
            0,
            0.625,
            2
          ],
          "texture": "#2"
        },
        "up": {
          "uv": [
            0,
            0,
            0.5,
            0.625
          ],
          "texture": "#2"
        },
        "down": {
          "uv": [
            0,
            0,
            0.5,
            0.625
          ],
          "texture": "#2"
        }
      }
    },
    {
      "name": "cube",
      "from": [
        6.75,
        14.8125,
        7.8125
      ],
      "to": [
        9.3125,
        17.1875,
        8.1875
      ],
      "faces": {
        "north": {
          "uv": [
            0,
            0,
            0.5,
            2
          ],
          "texture": "#2"
        },
        "east": {
          "uv": [
            0,
            0,
            0.625,
            2
          ],
          "texture": "#2"
        },
        "south": {
          "uv": [
            0,
            0,
            0.5,
            2
          ],
          "texture": "#2"
        },
        "west": {
          "uv": [
            0,
            0,
            0.625,
            2
          ],
          "texture": "#2"
        },
        "up": {
          "uv": [
            0,
            0,
            0.5,
            0.625
          ],
          "texture": "#2"
        },
        "down": {
          "uv": [
            0,
            0,
            0.5,
            0.625
          ],
          "texture": "#2"
        }
      }
    },
    {
      "name": "cube",
      "from": [
        4,
        15.5,
        7.8125
      ],
      "to": [
        4.125,
        17.8125,
        8.1875
      ],
      "faces": {
        "north": {
          "uv": [
            0,
            0,
            0.5,
            2
          ],
          "texture": "#2"
        },
        "east": {
          "uv": [
            0,
            0,
            0.625,
            2
          ],
          "texture": "#2"
        },
        "south": {
          "uv": [
            0,
            0,
            0.5,
            2
          ],
          "texture": "#2"
        },
        "west": {
          "uv": [
            0,
            0,
            0.625,
            2
          ],
          "texture": "#2"
        },
        "up": {
          "uv": [
            0,
            0,
            0.5,
            0.625
          ],
          "texture": "#2"
        },
        "down": {
          "uv": [
            0,
            0,
            0.5,
            0.625
          ],
          "texture": "#2"
        }
      },
      "rotation": {
        "origin": [
          3.75,
          8.625,
          8
        ],
        "axis": "z",
        "angle": -22.5
      }
    },
    {
      "name": "cube",
      "from": [
        6.75,
        14.8125,
        7.8125
      ],
      "to": [
        8.6875,
        17.1875,
        8.1875
      ],
      "faces": {
        "north": {
          "uv": [
            0,
            0,
            0.5,
            2
          ],
          "texture": "#2"
        },
        "east": {
          "uv": [
            0,
            0,
            0.625,
            2
          ],
          "texture": "#2"
        },
        "south": {
          "uv": [
            0,
            0,
            0.5,
            2
          ],
          "texture": "#2"
        },
        "west": {
          "uv": [
            0,
            0,
            0.625,
            2
          ],
          "texture": "#2"
        },
        "up": {
          "uv": [
            0,
            0,
            0.5,
            0.625
          ],
          "texture": "#2"
        },
        "down": {
          "uv": [
            0,
            0,
            0.5,
            0.625
          ],
          "texture": "#2"
        }
      }
    },
    {
      "name": "cube",
      "from": [
        6.625,
        14.8125,
        7.8125
      ],
      "to": [
        8.6875,
        14.9375,
        8.1875
      ],
      "faces": {
        "north": {
          "uv": [
            0,
            0,
            0.5,
            2
          ],
          "texture": "#2"
        },
        "east": {
          "uv": [
            0,
            0,
            0.625,
            2
          ],
          "texture": "#2"
        },
        "south": {
          "uv": [
            0,
            0,
            0.5,
            2
          ],
          "texture": "#2"
        },
        "west": {
          "uv": [
            0,
            0,
            0.625,
            2
          ],
          "texture": "#2"
        },
        "up": {
          "uv": [
            0,
            0,
            0.5,
            0.625
          ],
          "texture": "#2"
        },
        "down": {
          "uv": [
            0,
            0,
            0.5,
            0.625
          ],
          "texture": "#2"
        }
      }
    },
    {
      "name": "cube",
      "from": [
        6.0625,
        15.5,
        7.8125
      ],
      "to": [
        6.75,
        17,
        8.1875
      ],
      "faces": {
        "north": {
          "uv": [
            0,
            0,
            0.5,
            2
          ],
          "texture": "#2"
        },
        "east": {
          "uv": [
            0,
            0,
            0.625,
            2
          ],
          "texture": "#2"
        },
        "south": {
          "uv": [
            0,
            0,
            0.5,
            2
          ],
          "texture": "#2"
        },
        "west": {
          "uv": [
            0,
            0,
            0.625,
            2
          ],
          "texture": "#2"
        },
        "up": {
          "uv": [
            0,
            0,
            0.5,
            0.625
          ],
          "texture": "#2"
        },
        "down": {
          "uv": [
            0,
            0,
            0.5,
            0.625
          ],
          "texture": "#2"
        }
      },
      "rotation": {
        "origin": [
          6.375,
          8.625,
          8
        ],
        "axis": "z",
        "angle": -22.5
      }
    },
    {
      "name": "cube",
      "from": [
        4.0625,
        17.125,
        7.875
      ],
      "to": [
        4.375,
        19.625,
        8.125
      ],
      "faces": {
        "north": {
          "uv": [
            0,
            0,
            0.5,
            2
          ],
          "texture": "#2"
        },
        "east": {
          "uv": [
            0,
            0,
            0.625,
            2
          ],
          "texture": "#2"
        },
        "south": {
          "uv": [
            0,
            0,
            0.5,
            2
          ],
          "texture": "#2"
        },
        "west": {
          "uv": [
            0,
            0,
            0.625,
            2
          ],
          "texture": "#2"
        },
        "up": {
          "uv": [
            0,
            0,
            0.5,
            0.625
          ],
          "texture": "#2"
        },
        "down": {
          "uv": [
            0,
            0,
            0.5,
            0.625
          ],
          "texture": "#2"
        }
      },
      "rotation": {
        "origin": [
          3.9375,
          10.25,
          8
        ],
        "axis": "z",
        "angle": -45
      }
    },
    {
      "name": "cube",
      "from": [
        6.25,
        16.4375,
        6.875
      ],
      "to": [
        8.6875,
        17.0625,
        9.0625
      ],
      "faces": {
        "north": {
          "uv": [
            0,
            0,
            0.5,
            0.625
          ],
          "texture": "#2"
        },
        "east": {
          "uv": [
            0,
            0,
            2,
            0.625
          ],
          "texture": "#2"
        },
        "south": {
          "uv": [
            0,
            0,
            0.5,
            0.625
          ],
          "texture": "#2"
        },
        "west": {
          "uv": [
            0,
            0,
            2,
            0.625
          ],
          "texture": "#2"
        },
        "up": {
          "uv": [
            0,
            0,
            0.5,
            2
          ],
          "texture": "#2"
        },
        "down": {
          "uv": [
            0,
            0,
            0.5,
            2
          ],
          "texture": "#2"
        }
      }
    },
    {
      "name": "cube",
      "from": [
        6.25,
        17.25,
        4.9375
      ],
      "to": [
        8.8125,
        17.875,
        5.625
      ],
      "faces": {
        "north": {
          "uv": [
            0,
            0,
            0.5,
            0.625
          ],
          "texture": "#2"
        },
        "east": {
          "uv": [
            0,
            0,
            2,
            0.625
          ],
          "texture": "#2"
        },
        "south": {
          "uv": [
            0,
            0,
            0.5,
            0.625
          ],
          "texture": "#2"
        },
        "west": {
          "uv": [
            0,
            0,
            2,
            0.625
          ],
          "texture": "#2"
        },
        "up": {
          "uv": [
            0,
            0,
            0.5,
            2
          ],
          "texture": "#2"
        },
        "down": {
          "uv": [
            0,
            0,
            0.5,
            2
          ],
          "texture": "#2"
        }
      },
      "rotation": {
        "origin": [
          8,
          8.8125,
          5.25
        ],
        "axis": "x",
        "angle": 22.5
      }
    },
    {
      "name": "cube",
      "from": [
        6.25,
        17.25,
        10.3125
      ],
      "to": [
        8.8125,
        17.875,
        11
      ],
      "faces": {
        "north": {
          "uv": [
            0,
            0,
            0.5,
            0.625
          ],
          "texture": "#2"
        },
        "east": {
          "uv": [
            0,
            0,
            2,
            0.625
          ],
          "texture": "#2"
        },
        "south": {
          "uv": [
            0,
            0,
            0.5,
            0.625
          ],
          "texture": "#2"
        },
        "west": {
          "uv": [
            0,
            0,
            2,
            0.625
          ],
          "texture": "#2"
        },
        "up": {
          "uv": [
            0,
            0,
            0.5,
            2
          ],
          "texture": "#2"
        },
        "down": {
          "uv": [
            0,
            0,
            0.5,
            2
          ],
          "texture": "#2"
        }
      },
      "rotation": {
        "origin": [
          8,
          8.8125,
          10.625
        ],
        "axis": "x",
        "angle": -22.5
      }
    },
    {
      "name": "cube",
      "from": [
        6.25,
        16.625,
        7.875
      ],
      "to": [
        8.9375,
        17.3125,
        8.5625
      ],
      "faces": {
        "north": {
          "uv": [
            0,
            0,
            0.5,
            0.625
          ],
          "texture": "#2"
        },
        "east": {
          "uv": [
            0,
            0,
            2,
            0.625
          ],
          "texture": "#2"
        },
        "south": {
          "uv": [
            0,
            0,
            0.5,
            0.625
          ],
          "texture": "#2"
        },
        "west": {
          "uv": [
            0,
            0,
            2,
            0.625
          ],
          "texture": "#2"
        },
        "up": {
          "uv": [
            0,
            0,
            0.5,
            2
          ],
          "texture": "#2"
        },
        "down": {
          "uv": [
            0,
            0,
            0.5,
            2
          ],
          "texture": "#2"
        }
      },
      "rotation": {
        "origin": [
          8,
          8.1875,
          8.1875
        ],
        "axis": "x",
        "angle": 0
      }
    },
    {
      "name": "cube",
      "from": [
        6.25,
        16.625,
        7.5
      ],
      "to": [
        8.9375,
        17.3125,
        8.1875
      ],
      "faces": {
        "north": {
          "uv": [
            0,
            0,
            0.5,
            0.625
          ],
          "texture": "#2"
        },
        "east": {
          "uv": [
            0,
            0,
            2,
            0.625
          ],
          "texture": "#2"
        },
        "south": {
          "uv": [
            0,
            0,
            0.5,
            0.625
          ],
          "texture": "#2"
        },
        "west": {
          "uv": [
            0,
            0,
            2,
            0.625
          ],
          "texture": "#2"
        },
        "up": {
          "uv": [
            0,
            0,
            0.5,
            2
          ],
          "texture": "#2"
        },
        "down": {
          "uv": [
            0,
            0,
            0.5,
            2
          ],
          "texture": "#2"
        }
      },
      "rotation": {
        "origin": [
          8,
          8.1875,
          7.8125
        ],
        "axis": "x",
        "angle": 0
      }
    },
    {
      "name": "cube",
      "from": [
        7.3125,
        16.4375,
        7.125
      ],
      "to": [
        9.75,
        17.0625,
        8.875
      ],
      "faces": {
        "north": {
          "uv": [
            0,
            0,
            0.5,
            0.625
          ],
          "texture": "#2"
        },
        "east": {
          "uv": [
            0,
            0,
            2,
            0.625
          ],
          "texture": "#2"
        },
        "south": {
          "uv": [
            0,
            0,
            0.5,
            0.625
          ],
          "texture": "#2"
        },
        "west": {
          "uv": [
            0,
            0,
            2,
            0.625
          ],
          "texture": "#2"
        },
        "up": {
          "uv": [
            0,
            0,
            0.5,
            2
          ],
          "texture": "#2"
        },
        "down": {
          "uv": [
            0,
            0,
            0.5,
            2
          ],
          "texture": "#2"
        }
      }
    },
    {
      "name": "cube",
      "from": [
        7.4375,
        17.625,
        10.625
      ],
      "to": [
        10.25,
        17.875,
        11.125
      ],
      "faces": {
        "north": {
          "uv": [
            0,
            0,
            0.5,
            0.625
          ],
          "texture": "#2"
        },
        "east": {
          "uv": [
            0,
            0,
            2,
            0.625
          ],
          "texture": "#2"
        },
        "south": {
          "uv": [
            0,
            0,
            0.5,
            0.625
          ],
          "texture": "#2"
        },
        "west": {
          "uv": [
            0,
            0,
            2,
            0.625
          ],
          "texture": "#2"
        },
        "up": {
          "uv": [
            0,
            0,
            0.5,
            2
          ],
          "texture": "#2"
        },
        "down": {
          "uv": [
            0,
            0,
            0.5,
            2
          ],
          "texture": "#2"
        }
      },
      "rotation": {
        "origin": [
          9.1875,
          8.8125,
          10.9375
        ],
        "axis": "x",
        "angle": -22.5
      }
    },
    {
      "name": "cube",
      "from": [
        7.5,
        17.125,
        7.625
      ],
      "to": [
        10.625,
        17.25,
        8.375
      ],
      "faces": {
        "north": {
          "uv": [
            0,
            0,
            0.5,
            0.625
          ],
          "texture": "#2"
        },
        "east": {
          "uv": [
            0,
            0,
            2,
            0.625
          ],
          "texture": "#2"
        },
        "south": {
          "uv": [
            0,
            0,
            0.5,
            0.625
          ],
          "texture": "#2"
        },
        "west": {
          "uv": [
            0,
            0,
            2,
            0.625
          ],
          "texture": "#2"
        },
        "up": {
          "uv": [
            0,
            0,
            0.5,
            2
          ],
          "texture": "#2"
        },
        "down": {
          "uv": [
            0,
            0,
            0.5,
            2
          ],
          "texture": "#2"
        }
      },
      "rotation": {
        "origin": [
          9.25,
          8.125,
          8
        ],
        "axis": "x",
        "angle": 0
      }
    },
    {
      "name": "cube",
      "from": [
        7.4375,
        17.5625,
        4.875
      ],
      "to": [
        10.25,
        17.8125,
        5.375
      ],
      "faces": {
        "north": {
          "uv": [
            0,
            0,
            0.5,
            0.625
          ],
          "texture": "#2"
        },
        "east": {
          "uv": [
            0,
            0,
            2,
            0.625
          ],
          "texture": "#2"
        },
        "south": {
          "uv": [
            0,
            0,
            0.5,
            0.625
          ],
          "texture": "#2"
        },
        "west": {
          "uv": [
            0,
            0,
            2,
            0.625
          ],
          "texture": "#2"
        },
        "up": {
          "uv": [
            0,
            0,
            0.5,
            2
          ],
          "texture": "#2"
        },
        "down": {
          "uv": [
            0,
            0,
            0.5,
            2
          ],
          "texture": "#2"
        }
      },
      "rotation": {
        "origin": [
          9.1875,
          8.75,
          5.1875
        ],
        "axis": "x",
        "angle": 22.5
      }
    },
    {
      "name": "cube",
      "from": [
        9.3125,
        19.1875,
        13.65
      ],
      "to": [
        11.75,
        19.4375,
        14.15
      ],
      "faces": {
        "north": {
          "uv": [
            0,
            0,
            0.5,
            0.625
          ],
          "texture": "#2"
        },
        "east": {
          "uv": [
            0,
            0,
            2,
            0.625
          ],
          "texture": "#2"
        },
        "south": {
          "uv": [
            0,
            0,
            0.5,
            0.625
          ],
          "texture": "#2"
        },
        "west": {
          "uv": [
            0,
            0,
            2,
            0.625
          ],
          "texture": "#2"
        },
        "up": {
          "uv": [
            0,
            0,
            0.5,
            2
          ],
          "texture": "#2"
        },
        "down": {
          "uv": [
            0,
            0,
            0.5,
            2
          ],
          "texture": "#2"
        }
      },
      "rotation": {
        "origin": [
          11.0625,
          10.375,
          13.9625
        ],
        "axis": "x",
        "angle": -45
      }
    },
    {
      "name": "cube",
      "from": [
        9.3125,
        16.66,
        7.6875
      ],
      "to": [
        12.125,
        16.91,
        8.1875
      ],
      "faces": {
        "north": {
          "uv": [
            0,
            0,
            0.5,
            0.625
          ],
          "texture": "#2"
        },
        "east": {
          "uv": [
            0,
            0,
            2,
            0.625
          ],
          "texture": "#2"
        },
        "south": {
          "uv": [
            0,
            0,
            0.5,
            0.625
          ],
          "texture": "#2"
        },
        "west": {
          "uv": [
            0,
            0,
            2,
            0.625
          ],
          "texture": "#2"
        },
        "up": {
          "uv": [
            0,
            0,
            0.5,
            2
          ],
          "texture": "#2"
        },
        "down": {
          "uv": [
            0,
            0,
            0.5,
            2
          ],
          "texture": "#2"
        }
      },
      "rotation": {
        "origin": [
          11.0625,
          7.8475,
          8
        ],
        "axis": "x",
        "angle": 0
      }
    },
    {
      "name": "cube",
      "from": [
        9.3125,
        19.125,
        1.7125000000000004
      ],
      "to": [
        11.75,
        19.375,
        2.2125000000000004
      ],
      "faces": {
        "north": {
          "uv": [
            0,
            0,
            0.5,
            0.625
          ],
          "texture": "#2"
        },
        "east": {
          "uv": [
            0,
            0,
            2,
            0.625
          ],
          "texture": "#2"
        },
        "south": {
          "uv": [
            0,
            0,
            0.5,
            0.625
          ],
          "texture": "#2"
        },
        "west": {
          "uv": [
            0,
            0,
            2,
            0.625
          ],
          "texture": "#2"
        },
        "up": {
          "uv": [
            0,
            0,
            0.5,
            2
          ],
          "texture": "#2"
        },
        "down": {
          "uv": [
            0,
            0,
            0.5,
            2
          ],
          "texture": "#2"
        }
      },
      "rotation": {
        "origin": [
          11.0625,
          10.3125,
          2.0250000000000004
        ],
        "axis": "x",
        "angle": 45
      }
    },
    {
      "name": "cube",
      "from": [
        8.8125,
        16.0625,
        7.3375
      ],
      "to": [
        11.25,
        16.5625,
        7.5875
      ],
      "faces": {
        "north": {
          "uv": [
            0,
            0,
            0.5,
            0.625
          ],
          "texture": "#2"
        },
        "east": {
          "uv": [
            0,
            0,
            2,
            0.625
          ],
          "texture": "#2"
        },
        "south": {
          "uv": [
            0,
            0,
            0.5,
            0.625
          ],
          "texture": "#2"
        },
        "west": {
          "uv": [
            0,
            0,
            2,
            0.625
          ],
          "texture": "#2"
        },
        "up": {
          "uv": [
            0,
            0,
            0.5,
            2
          ],
          "texture": "#2"
        },
        "down": {
          "uv": [
            0,
            0,
            0.5,
            2
          ],
          "texture": "#2"
        }
      },
      "rotation": {
        "origin": [
          10.5625,
          7.25,
          7.65
        ],
        "axis": "x",
        "angle": 0
      }
    },
    {
      "name": "cube",
      "from": [
        8.8125,
        16.1,
        8.3375
      ],
      "to": [
        11.25,
        16.6,
        8.5875
      ],
      "faces": {
        "north": {
          "uv": [
            0,
            0,
            0.5,
            0.625
          ],
          "texture": "#2"
        },
        "east": {
          "uv": [
            0,
            0,
            2,
            0.625
          ],
          "texture": "#2"
        },
        "south": {
          "uv": [
            0,
            0,
            0.5,
            0.625
          ],
          "texture": "#2"
        },
        "west": {
          "uv": [
            0,
            0,
            2,
            0.625
          ],
          "texture": "#2"
        },
        "up": {
          "uv": [
            0,
            0,
            0.5,
            2
          ],
          "texture": "#2"
        },
        "down": {
          "uv": [
            0,
            0,
            0.5,
            2
          ],
          "texture": "#2"
        }
      },
      "rotation": {
        "origin": [
          10.5625,
          7.287500000000001,
          8.65
        ],
        "axis": "x",
        "angle": 0
      }
    },
    {
      "name": "cube",
      "from": [
        8.8125,
        18.5625,
        14.3375
      ],
      "to": [
        11.25,
        18.8125,
        14.8375
      ],
      "faces": {
        "north": {
          "uv": [
            0,
            0,
            0.5,
            0.625
          ],
          "texture": "#2"
        },
        "east": {
          "uv": [
            0,
            0,
            2,
            0.625
          ],
          "texture": "#2"
        },
        "south": {
          "uv": [
            0,
            0,
            0.5,
            0.625
          ],
          "texture": "#2"
        },
        "west": {
          "uv": [
            0,
            0,
            2,
            0.625
          ],
          "texture": "#2"
        },
        "up": {
          "uv": [
            0,
            0,
            0.5,
            2
          ],
          "texture": "#2"
        },
        "down": {
          "uv": [
            0,
            0,
            0.5,
            2
          ],
          "texture": "#2"
        }
      },
      "rotation": {
        "origin": [
          10.5625,
          9.75,
          14.65
        ],
        "axis": "x",
        "angle": -45
      }
    },
    {
      "name": "cube",
      "from": [
        8.8125,
        18.4375,
        1.0250000000000004
      ],
      "to": [
        11.25,
        18.6875,
        1.5250000000000004
      ],
      "faces": {
        "north": {
          "uv": [
            0,
            0,
            0.5,
            0.625
          ],
          "texture": "#2"
        },
        "east": {
          "uv": [
            0,
            0,
            2,
            0.625
          ],
          "texture": "#2"
        },
        "south": {
          "uv": [
            0,
            0,
            0.5,
            0.625
          ],
          "texture": "#2"
        },
        "west": {
          "uv": [
            0,
            0,
            2,
            0.625
          ],
          "texture": "#2"
        },
        "up": {
          "uv": [
            0,
            0,
            0.5,
            2
          ],
          "texture": "#2"
        },
        "down": {
          "uv": [
            0,
            0,
            0.5,
            2
          ],
          "texture": "#2"
        }
      },
      "rotation": {
        "origin": [
          10.5625,
          9.625,
          1.3375000000000004
        ],
        "axis": "x",
        "angle": 45
      }
    },
    {
      "name": "cube",
      "from": [
        8.4375,
        15.7225,
        7.6875
      ],
      "to": [
        11.25,
        15.9725,
        8.1875
      ],
      "faces": {
        "north": {
          "uv": [
            0,
            0,
            0.5,
            0.625
          ],
          "texture": "#2"
        },
        "east": {
          "uv": [
            0,
            0,
            2,
            0.625
          ],
          "texture": "#2"
        },
        "south": {
          "uv": [
            0,
            0,
            0.5,
            0.625
          ],
          "texture": "#2"
        },
        "west": {
          "uv": [
            0,
            0,
            2,
            0.625
          ],
          "texture": "#2"
        },
        "up": {
          "uv": [
            0,
            0,
            0.5,
            2
          ],
          "texture": "#2"
        },
        "down": {
          "uv": [
            0,
            0,
            0.5,
            2
          ],
          "texture": "#2"
        }
      },
      "rotation": {
        "origin": [
          10.1875,
          6.91,
          8
        ],
        "axis": "x",
        "angle": 0
      }
    },
    {
      "name": "cube",
      "from": [
        7.125,
        15.875,
        7
      ],
      "to": [
        7.6875,
        16.5,
        9
      ],
      "faces": {
        "north": {
          "uv": [
            0,
            0,
            0.5,
            0.625
          ],
          "texture": "#2"
        },
        "east": {
          "uv": [
            0,
            0,
            2,
            0.625
          ],
          "texture": "#2"
        },
        "south": {
          "uv": [
            0,
            0,
            0.5,
            0.625
          ],
          "texture": "#2"
        },
        "west": {
          "uv": [
            0,
            0,
            2,
            0.625
          ],
          "texture": "#2"
        },
        "up": {
          "uv": [
            0,
            0,
            0.5,
            2
          ],
          "texture": "#2"
        },
        "down": {
          "uv": [
            0,
            0,
            0.5,
            2
          ],
          "texture": "#2"
        }
      }
    },
    {
      "name": "cube",
      "from": [
        6.9375,
        15.8125,
        7
      ],
      "to": [
        7.5,
        16.4375,
        9
      ],
      "faces": {
        "north": {
          "uv": [
            0,
            0,
            0.5,
            0.625
          ],
          "texture": "#2"
        },
        "east": {
          "uv": [
            0,
            0,
            2,
            0.625
          ],
          "texture": "#2"
        },
        "south": {
          "uv": [
            0,
            0,
            0.5,
            0.625
          ],
          "texture": "#2"
        },
        "west": {
          "uv": [
            0,
            0,
            2,
            0.625
          ],
          "texture": "#2"
        },
        "up": {
          "uv": [
            0,
            0,
            0.5,
            2
          ],
          "texture": "#2"
        },
        "down": {
          "uv": [
            0,
            0,
            0.5,
            2
          ],
          "texture": "#2"
        }
      }
    },
    {
      "name": "cube",
      "from": [
        6.8125,
        15.6875,
        7
      ],
      "to": [
        7.375,
        16.3125,
        9
      ],
      "faces": {
        "north": {
          "uv": [
            0,
            0,
            0.5,
            0.625
          ],
          "texture": "#2"
        },
        "east": {
          "uv": [
            0,
            0,
            2,
            0.625
          ],
          "texture": "#2"
        },
        "south": {
          "uv": [
            0,
            0,
            0.5,
            0.625
          ],
          "texture": "#2"
        },
        "west": {
          "uv": [
            0,
            0,
            2,
            0.625
          ],
          "texture": "#2"
        },
        "up": {
          "uv": [
            0,
            0,
            0.5,
            2
          ],
          "texture": "#2"
        },
        "down": {
          "uv": [
            0,
            0,
            0.5,
            2
          ],
          "texture": "#2"
        }
      }
    },
    {
      "name": "cube",
      "from": [
        6.6875,
        15.5625,
        7
      ],
      "to": [
        7.25,
        16.1875,
        9
      ],
      "faces": {
        "north": {
          "uv": [
            0,
            0,
            0.5,
            0.625
          ],
          "texture": "#2"
        },
        "east": {
          "uv": [
            0,
            0,
            2,
            0.625
          ],
          "texture": "#2"
        },
        "south": {
          "uv": [
            0,
            0,
            0.5,
            0.625
          ],
          "texture": "#2"
        },
        "west": {
          "uv": [
            0,
            0,
            2,
            0.625
          ],
          "texture": "#2"
        },
        "up": {
          "uv": [
            0,
            0,
            0.5,
            2
          ],
          "texture": "#2"
        },
        "down": {
          "uv": [
            0,
            0,
            0.5,
            2
          ],
          "texture": "#2"
        }
      }
    },
    {
      "name": "cube",
      "from": [
        6.5625,
        15.4375,
        7.0625
      ],
      "to": [
        7.0625,
        16.5625,
        8.9375
      ],
      "faces": {
        "north": {
          "uv": [
            0,
            0,
            0.5,
            0.625
          ],
          "texture": "#2"
        },
        "east": {
          "uv": [
            0,
            0,
            2,
            0.625
          ],
          "texture": "#2"
        },
        "south": {
          "uv": [
            0,
            0,
            0.5,
            0.625
          ],
          "texture": "#2"
        },
        "west": {
          "uv": [
            0,
            0,
            2,
            0.625
          ],
          "texture": "#2"
        },
        "up": {
          "uv": [
            0,
            0,
            0.5,
            2
          ],
          "texture": "#2"
        },
        "down": {
          "uv": [
            0,
            0,
            0.5,
            2
          ],
          "texture": "#2"
        }
      }
    },
    {
      "name": "cube",
      "from": [
        6.8125,
        15.8125,
        7
      ],
      "to": [
        7.375,
        16.4375,
        9
      ],
      "faces": {
        "north": {
          "uv": [
            0,
            0,
            0.5,
            0.625
          ],
          "texture": "#2"
        },
        "east": {
          "uv": [
            0,
            0,
            2,
            0.625
          ],
          "texture": "#2"
        },
        "south": {
          "uv": [
            0,
            0,
            0.5,
            0.625
          ],
          "texture": "#2"
        },
        "west": {
          "uv": [
            0,
            0,
            2,
            0.625
          ],
          "texture": "#2"
        },
        "up": {
          "uv": [
            0,
            0,
            0.5,
            2
          ],
          "texture": "#2"
        },
        "down": {
          "uv": [
            0,
            0,
            0.5,
            2
          ],
          "texture": "#2"
        }
      }
    },
    {
      "name": "cube",
      "from": [
        7.375,
        13.1875,
        7.6875
      ],
      "to": [
        8.125,
        15.25,
        8.3125
      ],
      "faces": {
        "north": {
          "uv": [
            0,
            0,
            0.5,
            2
          ],
          "texture": "#2"
        },
        "east": {
          "uv": [
            0,
            0,
            0.625,
            2
          ],
          "texture": "#2"
        },
        "south": {
          "uv": [
            0,
            0,
            0.5,
            2
          ],
          "texture": "#2"
        },
        "west": {
          "uv": [
            0,
            0,
            0.625,
            2
          ],
          "texture": "#2"
        },
        "up": {
          "uv": [
            0,
            0,
            0.5,
            0.625
          ],
          "texture": "#2"
        },
        "down": {
          "uv": [
            0,
            0,
            0.5,
            0.625
          ],
          "texture": "#2"
        }
      }
    },
    {
      "name": "cube",
      "from": [
        12.3125,
        16.8125,
        7.6875
      ],
      "to": [
        13.8125,
        17.375,
        8.3125
      ],
      "faces": {
        "north": {
          "uv": [
            0,
            0,
            0.5,
            2
          ],
          "texture": "#2"
        },
        "east": {
          "uv": [
            0,
            0,
            0.625,
            2
          ],
          "texture": "#2"
        },
        "south": {
          "uv": [
            0,
            0,
            0.5,
            2
          ],
          "texture": "#2"
        },
        "west": {
          "uv": [
            0,
            0,
            0.625,
            2
          ],
          "texture": "#2"
        },
        "up": {
          "uv": [
            0,
            0,
            0.5,
            0.625
          ],
          "texture": "#2"
        },
        "down": {
          "uv": [
            0,
            0,
            0.5,
            0.625
          ],
          "texture": "#2"
        }
      },
      "rotation": {
        "origin": [
          13.5,
          10.125,
          8
        ],
        "axis": "z",
        "angle": 45
      }
    },
    {
      "name": "cube",
      "from": [
        4.25,
        14.8125,
        7.6875
      ],
      "to": [
        5.1875,
        15.375,
        8.3125
      ],
      "faces": {
        "north": {
          "uv": [
            0,
            0,
            0.5,
            2
          ],
          "texture": "#2"
        },
        "east": {
          "uv": [
            0,
            0,
            0.625,
            2
          ],
          "texture": "#2"
        },
        "south": {
          "uv": [
            0,
            0,
            0.5,
            2
          ],
          "texture": "#2"
        },
        "west": {
          "uv": [
            0,
            0,
            0.625,
            2
          ],
          "texture": "#2"
        },
        "up": {
          "uv": [
            0,
            0,
            0.5,
            0.625
          ],
          "texture": "#2"
        },
        "down": {
          "uv": [
            0,
            0,
            0.5,
            0.625
          ],
          "texture": "#2"
        }
      },
      "rotation": {
        "origin": [
          5.75,
          8.125,
          8
        ],
        "axis": "z",
        "angle": -22.5
      }
    },
    {
      "name": "cube",
      "from": [
        4.25,
        -0.6875,
        7.6875
      ],
      "to": [
        4.6875,
        1.375,
        8.3125
      ],
      "faces": {
        "north": {
          "uv": [
            0,
            0,
            0.5,
            2
          ],
          "texture": "#2"
        },
        "east": {
          "uv": [
            0,
            0,
            0.625,
            2
          ],
          "texture": "#2"
        },
        "south": {
          "uv": [
            0,
            0,
            0.5,
            2
          ],
          "texture": "#2"
        },
        "west": {
          "uv": [
            0,
            0,
            0.625,
            2
          ],
          "texture": "#2"
        },
        "up": {
          "uv": [
            0,
            0,
            0.5,
            0.625
          ],
          "texture": "#2"
        },
        "down": {
          "uv": [
            0,
            0,
            0.5,
            0.625
          ],
          "texture": "#2"
        }
      },
      "rotation": {
        "origin": [
          5.75,
          -7.125,
          8
        ],
        "axis": "z",
        "angle": -22.5
      }
    },
    {
      "name": "cube",
      "from": [
        6.875,
        -0.8125,
        7.6875
      ],
      "to": [
        8,
        -0.4375,
        8.3125
      ],
      "faces": {
        "north": {
          "uv": [
            0,
            0,
            0.5,
            2
          ],
          "texture": "#2"
        },
        "east": {
          "uv": [
            0,
            0,
            0.625,
            2
          ],
          "texture": "#2"
        },
        "south": {
          "uv": [
            0,
            0,
            0.5,
            2
          ],
          "texture": "#2"
        },
        "west": {
          "uv": [
            0,
            0,
            0.625,
            2
          ],
          "texture": "#2"
        },
        "up": {
          "uv": [
            0,
            0,
            0.5,
            0.625
          ],
          "texture": "#2"
        },
        "down": {
          "uv": [
            0,
            0,
            0.5,
            0.625
          ],
          "texture": "#2"
        }
      }
    },
    {
      "name": "cube",
      "from": [
        7.25,
        -0.8125,
        7.6875
      ],
      "to": [
        8,
        0.0625,
        8.3125
      ],
      "faces": {
        "north": {
          "uv": [
            0,
            0,
            0.5,
            2
          ],
          "texture": "#2"
        },
        "east": {
          "uv": [
            0,
            0,
            0.625,
            2
          ],
          "texture": "#2"
        },
        "south": {
          "uv": [
            0,
            0,
            0.5,
            2
          ],
          "texture": "#2"
        },
        "west": {
          "uv": [
            0,
            0,
            0.625,
            2
          ],
          "texture": "#2"
        },
        "up": {
          "uv": [
            0,
            0,
            0.5,
            0.625
          ],
          "texture": "#2"
        },
        "down": {
          "uv": [
            0,
            0,
            0.5,
            0.625
          ],
          "texture": "#2"
        }
      }
    },
    {
      "name": "cube",
      "from": [
        6.1875,
        16.5,
        7.625
      ],
      "to": [
        7,
        17.0625,
        8.25
      ],
      "faces": {
        "north": {
          "uv": [
            0,
            0,
            0.5,
            1.75
          ],
          "texture": "#2"
        },
        "east": {
          "uv": [
            0,
            0,
            1.75,
            1.75
          ],
          "texture": "#2"
        },
        "south": {
          "uv": [
            0,
            0,
            0.5,
            1.75
          ],
          "texture": "#2"
        },
        "west": {
          "uv": [
            0,
            0,
            1.75,
            1.75
          ],
          "texture": "#0"
        },
        "up": {
          "uv": [
            0,
            0,
            0.5,
            1.75
          ],
          "texture": "#2"
        },
        "down": {
          "uv": [
            0,
            0,
            0.5,
            1.75
          ],
          "texture": "#2"
        }
      }
    }
  ],
  "display": {
    "thirdperson_righthand": {
      "rotation": [
        180,
        -90,
        180
      ],
      "translation": [
        0,
        0,
        1
      ],
      "scale": [
        2.875,
        2.5,
        2.2
      ]
    },
    "thirdperson_lefthand": {
      "rotation": [
        180,
        90,
        180
      ],
      "translation": [
        -0.5,
        -1.5,
        1
      ],
      "scale": [
        2.875,
        2.5,
        2.2
      ]
    },
    "head": {
      "rotation": [
        45,
        0,
        90
      ],
      "translation": [
        0.7,
        0,
        0
      ],
      "scale": [
        1.2,
        1.2,
        1.2
      ]
    },
    "firstperson_righthand": {
      "rotation": [
        -180,
        -88,
        -180
      ],
      "translation": [
        -2,
        3,
        2
      ],
      "scale": [
        1.75,
        1.3,
        1.3
      ]
    },
    "firstperson_lefthand": {
      "rotation": [
        -180,
        104,
        -180
      ],
      "translation": [
        0,
        2.5,
        2
      ],
      "scale": [
        1.75,
        1.375,
        1.375
      ]
    },
    "gui": {
      "translation": [
        0,
        0,
        32
      ],
      "scale": [
        1.075,
        0.9,
        0.35
      ],
      "rotation": [
        0,
        -180,
        50
      ]
    },
    "fixed": {
      "scale": [
        1.375,
        0.95,
        0.6
      ],
      "translation": [
        0.5,
        -1,
        -0.5
      ],
      "rotation": [
        0,
        0,
        45
      ]
    },
    "ground": {
      "scale": [
        0.55,
        0.525,
        0.525
      ]
    }
  }
}
