{
  "pools": [
    {
      "name": "beowolf",
      "rolls": {
        "min": 1,
        "max": 3
      },
      "entries": [
        {
          "type": "item",
          "name": "rwbym:cr1",
          "weight": 20
        },
        {
          "type": "item",
          "name": "rwbym:cr2",
          "weight": 20
        },
        {
          "type": "item",
          "name": "rwbym:cr3",
          "weight": 20
        },
        {
          "type": "item",
          "name": "rwbym:cr4",
          "weight": 20
        },
        {
          "type": "item",
          "name": "rwbym:cr5",
          "weight": 20
        },
        {
          "type": "item",
          "name": "rwbym:cr6",
          "weight": 20
        },
        {
          "type": "item",
          "name": "rwbym:gam1",
          "weight": 20
        },
        {
          "type": "item",
          "name": "rwbym:gam2",
          "weight": 20
        },
        {
          "type": "item",
          "name": "rwbym:gam3",
          "weight": 20
        },
        {
          "type": "item",
          "name": "rwbym:em1",
          "weight": 20
        },
        {
          "type": "item",
          "name": "rwbym:em2",
          "weight": 20
        },
        {
          "type": "item",
          "name": "rwbym:em3",
          "weight": 20
        },
        {
          "type": "item",
          "name": "rwbym:mytre1",
          "weight": 20
        },
        {
          "type": "item",
          "name": "rwbym:mytre2",
          "weight": 20
        },
        {
          "type": "item",
          "name": "rwbym:mytre3",
          "weight": 20
        },
        {
          "type": "item",
          "name": "rwbym:qro1",
          "weight": 20
        },
        {
          "type": "item",
          "name": "rwbym:qro2",
          "weight": 20
        },
        {
          "type": "item",
          "name": "rwbym:qro3",
          "weight": 20
        },
        {
          "type": "item",
          "name": "rwbym:yatsuhashi",
          "weight": 5
        },
        {
          "type": "item",
          "name": "rwbym:cocobag",
          "weight": 5
        },
        {
          "type": "item",
          "name": "rwbym:dust",
          "weight": 60,
          "functions": [
            {
              "function": "set_count",
              "count": {
                "min": 1,
                "max": 4
              }
            }
          ]
        }
      ]
    }
  ]
}
